 EVERY SEASON STARTS AT DICK'S SPORTING GOODS >  TEAM SPORTS > EXERCISE > FOOTWEAR > APPAREL > GOLF > OUTDOORS > FAN SHOP > CLEARANCE > 2 DAYS ONLY! FREE SHIPPING NO MINIMUM PURCHASE* | SHOP NOW > | Online only. Excludes PING. Offer valid through 6/25/14 at 11:59PM PT.   FACEBOOK >  TWITTER >  YOUTUBE >  INSTAGRAM >  PINTEREST >  

FROM: "DICK'S Sporting Goods" 
SUBJECT: 2 Days Only - Free Shipping No Minimum Purchase!




        
        
        DICK'S Sporting Goods

		
        






  
    
      
        
          




Free Returns on Apparel & Footwear!





              Never miss an email from 
        
      



  
   
  
  
   
	  
	  
	
  
  
   
	  
	  
	
  






			  

        












              
                



  
   
  
  
   
	  
	   
	   
	   
	   
	   
	   
	  
	
  
  
   
  



                  
                    
                    



*Offer valid through 6/25/14 11:59PM PT. Offer only valid on items marked with the FREE SHIPPING Savings Alert message. Online only. Applies only for standard economy shipping and only up to a $15 shipping credit shown in the cart. Excludes PING. Discount does not apply to taxes or similar charges. Entire order must be shipped to a single address. Cannot be combined with any other offer nor is this valid on previous purchases. Only applies to orders to be shipped to a valid address in the United States, excluding Alaska and 


		




                      DICK'S Sporting Goods, 345 Court Street, Coraopolis, PA  15108
                      


Privacy Policy

Online Information
Price comparisons contained on this website are not valid in Arizona, Massachusetts or any other state in which such comparisons are not permitted. 

Questions?



                    
                  
            




