EVERY SEASON STARTS AT DICK'S SPORTING GOODS FREE SHIPPING ON PURCHASES OF $49 OR MORE*   TEAM SPORTS EXERCISE FOOTWEAR APPAREL GOLF OUTDOORS FAN SHOP CLEARANCE  FLASH SALE | 12 HOURS ONLY! | SAVE UP TO 50% OFF SELECT ITEMS | SHOP NOW > | Online only. Limited time offer. Valid from 10 AM-10 PM ET today only. While supplies last. Check DICKS.com every Thursday for our latest Flash Sale deals. TAKE AN EXRA 25% OFF SELECT MEN'S, WOMEN'S &amp; YOUTH ATHLETIC APPAREL | SHOP NOW > TAKE AN EXTRA 30% OFF SELECT QUEST LAWN GAMES | SHOP NOW > 50% OFF SELECT SKEET REESE RODS | SHOP NOW > $59.98 - SOLEUS GO! ACTIVITY TRACKER | SHOP NOW >    FACEBOOK  TWITTER  YOUTUBE  INSTAGRAM  PINTEREST  

FROM: "DICK'S Sporting Goods" 
SUBJECT: Flash Sale! Save up to 50% Off Select Items!




        
        
        DICK'S Sporting Goods

		




                








  
    
      
        
          




12 Hours Only! 10AM-10PM. While Supplies Last!
 





              Never miss an email from 
        
      

  
   
	  
	  
	
  
  
   
  
  
   
	  
	   
	   
	  
	
  







  
   
  
  
  
  
  
  
  
  
  
  
  
  
   
  













              
                



  
   
  
  
   
	  
	   
	   
	   
	   
	   
	   
	  
	
  
  
   
  



                  
                    
                    





