EVERY SEASON STARTS AT DICK'S SPORTING GOODS    TEAM SPORTS EXERCISE FOOTWEAR APPAREL GOLF OUTDOORS FAN SHOP CLEARANCE  LIMITED TIME ONLY! | FREE SHIPPING WITH NO MINIMUM PURCHASE* | SHOP ONLINE NOW > | Online only. Excludes PING. Offer valid through 6/24/15 12:00 PM PT. Additional exclusions may apply. See website for details.   FACEBOOK  TWITTER  YOUTUBE  INSTAGRAM  PINTEREST  

FROM: "DICK'S Sporting Goods" 
SUBJECT: Free Shipping No Minimum – Limited Time Only! 




        
        
        DICK'S Sporting Goods

		




                








  
    
      
        
          



Choose from thousands of items online! 




              Never miss an email from 
        
      

  
   
	  
	  
	
  
  
   
  
  
   
	  
	   
	   
	  
	
  






  
  

        
















              
                



  
   
  
  
   
	  
	   
	   
	   
	   
	   
	   
	  
	
  
  
   
  



                  
                    
                    





