EVERY SEASON STARTS AT DICK'S SPORTING GOODS GET IT BY FATHER'S DAY | BUY ONLINE, PICK UP IN STORE   TEAM SPORTS EXERCISE FOOTWEAR APPAREL GOLF OUTDOORS FAN SHOP CLEARANCE  LAST CHANCE FOR FATHER'S DAY GIFTS! | SHOP NOW> SALE 25% OFF NIKE FOOTWEAR | SHOP NOW> SALE 25% OFF ENTIRE STOCK OF RASH GUARDS | SHOP NOW> SALE 25% OFF ENTIRE STOCK OF BOARDSHORTS | SHOP NOW> BUY ONE, GET ONE 50% OFF† OUTDOOR GAMES $19.99 & UP | SHOP NOW> 2 FOR $30 | Top-Flite Gamer,  TaylorMade RBZ Distance & Bridgestone TreoSoft | SHOP NOW> LAST CHANCE! SALE $79.98 | REG. 99.95 PRICES VALID THROUGH 6/20 | FITBIT FLEX | TRACKS STEPS, DISTANCE
AND CALORIES BURNED AT NIGHT IT TRACKS SLEEP CYCLE MOTIVATIONAL LIGHTS MAKE YOU MORE ACTIVE TOWARDS YOUR GOAL | SHOP NOW> GOPRO HERO+ LCD MAKE IT AN ALL-IN-ONE AWESOME FATHER'S DAY & RECEIVE $50 DICK’S CASH with any Single GoPro Camera Purchase $299.99 or more. | Offer valid 6/14/15 through 6/20/15. Redeemable 7/5/15 through 7/18/15.| SHOP NOW>   FACEBOOK  TWITTER  YOUTUBE  INSTAGRAM  PINTEREST  

FROM: "DICK'S Sporting Goods" 
SUBJECT: Save on Last Minute Gifts for Dad!




        
        
        DICK'S Sporting Goods

		




                








  
    
      
        
          




Sale 25% Off Nike Footwear!
 




              Never miss an email from 
        
      

  
   
	  
	  
	
  
  
   
  
  
   
	  
	   
	   
	  
	
  











  


  





  





  
   
	  
	  
	
  



  




  





































              
                



  
   
  
  
   
	  
	   
	   
	   
	   
	   
	   
	  
	
  
  
   
  



                  
                    
                    



†Second item must be of equal or lesser value. 








                      DICK'S Sporting Goods, 345 Court Street, Coraopolis, PA  15108
                      

                    




