Priority Inbox TigerDirect.com These Deals End 11:59PM 9/12  These Deals End 11:59PM 9/12   Deal of the Day! Summer Clearance Text Message RSS twitter facebook

FROM: "TigerDirect.com" 
SUBJECT: Price Alert: New 65” LG 4K 240Hz Smart TV - Too Low To Show!
                

TigerDirect.com | WEM4645 | These Deals End 11:59PM 9/12











  
  
    
      









	
    
      
      Only For Tiger Insiders
        
    



          
            Computers
            TV  Video 
            Computer Parts
           
            Find Store			
            Daily Deal
			
                        Summer Clearance  
                         
			
            
          
        


      
      
        
          
		

        
		  
      
      
      
      
      




  
    
        
    

  

      
        
        
        
            
              
                
              
            
        
        
        
      
    
 

    
        
    





  



  
  
  $149 

  
  
  $1499 

  
  
  $649* 

  
  
  $99 

  


  
  
        
        
        
            
  
    
      
  
    
  
    
    




    
        
            
            
              
               
                
                
                
              
          
        
    


  
    
  





    
    
    
    
    
  
  
    
  
  

      
  

         
        
      

  
    
  
  
    
  
  
    
  
  


    
  
  
  

 
                  
  
    
  
  
    

  
    
                    


        
       
 
                 
                

                
                
