Priority Inbox TigerDirect.com Clearance Sale... Dont Miss Out! A204-2715 HPR-102574523 WAQ-102875284 KIW-102494161 WED-102313769 KMS-102109438 XEA-102409996 HPR-102513304 RPC-102835351 BNO-102348039 RAD-102808274 LCU-102575115 M69-00154 EVG-102776324 ZOC-102773622 HPR-102875257 UAM-102370067 G452-1042 QDA-102011032 A79-6351 Microsoft Windows 7 Home Premium OS<br> $10 Coupon QOQ156871 Expires 6/4<br>FREE SHIPPING LCU-102846980 Shop Now KCE-102411227 Shop Now ESN-102846877 FEI-102543613 UPS-102869562 ESN-102895976 OCE-102589363 VZI-102844756 WZP-102918138 1RO-102918155 ZLI-102813048 ZLI-102813049 24I-102869956 C18-42016 THW-102840748 DLI-102895972 L61-6114 M Shop Now ULR-102116387T Shop Now T06-42049 RAG-101793816 B20-4378 ULT40280 Deal of the Day! Microsoft Surface Text Message RSS twitter facebook

FROM: "TigerDirect.com" 
SUBJECT: Blowout! 550VA UPS $49 & More! Don’t Miss Out
                

TigerDirect.com | WEM4558 | Clearance Sale... Dont Miss Out!















  
    
      

     





	
    
      
      Only For Tiger Insiders
        
    



          
            Computers
            TV  Video 
            Computer Parts
           
            Find Store			
            Daily Deal
			
                        Graduation Gift Guide  
                         
                      
            
			
            
          
        


            
          
        
      
      
        
          
       
































	
    
    
    Eclipse V180 8GB MP4 Player 
	
    
    
    
    
	
    
    
    
    
    WD Elements 3TB Desktop HDD
	
    
    
    
    
    LifeSmart 10,000 BTU Portable AC 
	
    
    


	
    
    
  
    
    
    
    
	
    
    
    
    
  
    
    
    
    
	
    
    
    
    
  
    
    
    
    
	
    
    
    
    
  
    
    
    
    
	
    
    



	
    
    
                    FREE SHIPPING
					
                        
                        
                        $9
                        99
                        
                        
							
    
    
    
    
                            
                       $39.99

                            
                        
                        
                        $29
                        99
                        
                        
							
    
    
    
    
                    FREE SHIPPING
					
                            
                       $159.99

                            
                        
                        
                        $109
                        99
                        
                        
							
    
    
    
    
                    FREE SHIPPING
					
                            
                       $499.95

                            
                        
                        
                        $239
                        99
                        
                        
							
    
    


	
    
    
    
    
    
    Price After Rebate: $9.99*
    
    
    
    Price After Rebate: $89.99*
    
    
    
    
    
    















  

	
    
    
    APC 550VA UPS
	
    
    
    
    
	
    
    
    
    
    Brother Mono Laser Multifunction Ref.
	
    
    
    
    
    Lenovo H5005 AMD Quad-Core Desktop
	
    
    


	
    
    
  
    
    
    
    
	
    
    
    
    
  
    
    
    
    
	
    
    
    
    
  
    
    
    
    
	
    
    
    
    
  
    
    
    
    
	
    
    



	
    
    
                            
                       $69.99

                            
                        
                        
                        $49
                        99
                        
                        
							
    
    
    
    
                    FREE SHIPPING
					
                            
                       $279.99

                            
                        
                        
                        $199
                        99
                        
                        
							
    
    
    
    Refurbished
                            
                       $159.99

                            
                        
                        
                        $79
                        99
                        
                        
							
    
    
    
    
                            
                       $399.99

                            
                        
                        
                        $349
                        99
                        
                        
							
    
    


	
    
    
    
    
    
    
    
    
    
    
    
    
    
    Price After Rebate: $299.99*
    
    






	
    
    
    AMD FX-6350 CPU/ASUS 970 MB BUNDLE
	
    
    
    
    
    EVGA GeForce GTX 970 Video Graphics Card
	
    
    
    
    
    ZOTAC GeForce GTX 980 AMP! Edition Video Graphics
	
    
    
    
    
	
    
    


	
    
    
  
    
    
    
    
	
    
    
    
    
  
    
    
    
    
	
    
    
    
    
  
    
    
    
    
	
    
    
    
    
  
    
    
    
    
	
    
    



	
    
    
                            
                       $273.99

                            
                        
                        
                        $209
                        99
                        
                        
							
    
    
    
    
                            
                       $369.99

                            
                        
                        
                        $339
                        99
                        
                        
							
    
    
    
    
                    FREE SHIPPING
					
                            
                       $579.99

                            
                        
                        
                        $529
                        99
                        
                        
							
    
    
    
    
                            
                       $799.99

                            
                        
                        
                        $699
                        99
                        
                        
							
    
    


	
    
    
    
    
    
    Price After Rebate: $319.99*
    
    
    
    
    
    
    
    
    
    






	
    
    
    Samsung EVO 32GB Micro SDHC Flash Card w/ Adapter
	
    
    
    
    
    GIGABYTE AMD 990FX Motherboard
	
    
    
    
    
    ADATA XPG V1.0 16GB Desktop Memory
	
    
    
    
    
    AMD FX-6350 Six-Core Processor 
	
    
    


	
    
    
  
    
    
    
    
	
    
    
    
    
  
    
    
    
    
	
    
    
    
    
  
    
    
    
    
	
    
    
    
    
  
    
    
    
    
	
    
    



	
    
    
                    FREE SHIPPING
					
                            
                       $17.99

                            
                        
                        
                        $14
                        99
                        
                        
							
    
    
    
    
                            
                       $149.99

                            
                        
                        
                        $109
                        99
                        
                        
							
    
    
    
    
                    FREE SHIPPING
					
                            
                       $149.99

                            
                        
                        
                        $99
                        99
                        
                        
							
    
    
    
    
                            
                       $169.99

                            
                        
                        
                        $119
                        99
                        
                        
							
    
    


	
    
    
    
    
    
    Price After Rebate: $99.99*
    
    
    
    
    
    
    
    
    
    








  
    
      
    
  
  
      
      
      
      
      Microsoft Windows 7 Home Premium OS $10 Coupon QOQ156871 Expires 6/4FREE SHIPPING
      
      
        
        
        
          $82.99*
          
            
        
        
        
      
      
      





  

	
    
    
    
    
    
    
    
    


	
    
    

					
					
          
	
    
    
    
    

					
					
          
	
    
    



	
    
    

      
				
					
            
            
            
					
						
				
					
          
          
          
          
          
          Laptop
          
          Item# LCU-102846980
 
					
          
            
 							$479.99Save $180
              
              
              $329
              99
              
              
              After Rebate: $299.99*
           
            
            
            
            
          
				
			
 


    
    
    
    

      
				
					
            
            
            
					
						
				
					
          
          
          
          
          
          Full HD Display, 1920x1080 Resolution, 3 HDMI Ports inputs, USB input, VGA input,Headphone Output, Energy Star
          
          Item# KCE-102411227
 
					
          
            
 							$699Save $349
              
              
              $449
              99
              
              
              After Rebate: $349.99*
           
            
            
            
            
          
				
			
 


    
    


	
    
    
    
    
    
    
    
    











  

	
    
    
	
    
    
    
    
	
    
    
    
    
	
    
    
    
    
	
    
    


	
    
    
  
    
    
    
    
	
    
    
    
    
  
    
    
    
    
	
    
    
    
    
  
    
    
    
    
	
    
    
    
    
  
    
    
    
    
	
    
    



	
    
    
                            
                       $649.99

                            
                        
                        
                        $599
                        99
                        
                        
							
    
    
    
    
                            
                       $599.99

                            
                        
                        
                        $449
                        99
                        
                        
							
    
    
    
    
                            
                       $199.99

                            
                        
                        
                        $169
                        99
                        
                        
							
    
    
    
    Refurbished
                            
                       $129.99

                            
                        
                        
                        $89
                        99
                        
                        
							
    
    


	
    
    Price After Rebate: $499.99*
    
    
    
    Price After Rebate: $349.99*
    
    
    
    Price After Rebate: $139.99*
    
    
    
    Price After Rebate: $69.99*
    
    






	
    
    
	
    
    
    
    
    Vizio 2.0 Channel Bluetooth Sound Stand
	
    
    
    
    
	
    
    
    
    
    Roku 2 Streaming Media Player 
	
    
    


	
    
    
  
    
    
    
    
	
    
    
    
    
  
    
    
    
    
	
    
    
    
    
  
    
    
    
    
	
    
    
    
    
  
    
    
    
    
	
    
    



	
    
    
                            
                       $529.99

                            
                        
                        
                        $449
                        99
                        
                        
							
    
    
    
    
                    FREE SHIPPING
					
                            
                       $149.99

                            
                        
                        
                        $99
                        99
                        
                        
							
    
    
    
    
                            
                       $89.99

                            
                        
                        
                        $49
                        99
                        
                        
							
    
    
    
    Refurbished
                            
                       $64.99

                            
                        
                        
                        $49
                        
                        
							
    
    


	
    
    
    
    
    
    Price After Rebate: $79.99*
    
    
    
    
    
    
    
       
             
              
      			$10 OFF
      			 GGE157396 
              
            
      		Ends 
                          6/6 11:59 PM ET
                          
                         
                       
        
    
    









  

	
    
    
    McCormick Workstation 
	
    
    
    
    
    Tennille Computer Desk 
	
    
    
    
    
    Bill Blass Haysville 4 Piece Spinner Set B2826-3
	
    
    


	
    
    
  
    
    
    

	
    
    
    
    
  
    
    
    

	
    
    
    
    
  
    
    
    

	
    
    



	
    
    
                            
                       $200

                            
            
            
                    
                    
                    
                        
                        
                        $109
                        99
                        
                        
                    
                    
                    
                    
			
    
    
    
    
                            
                       $280

                            
            
            
                    
                    
                    
                        
                        
                        $159
                        99
                        
                        
                    
                    
                    
                    
			
    
    
    
    
                            
                       $820

                            
            
            
                    
                    
                    
                        
                        
                        $104
                        99
                        
                        
                    
                    
                    
                    
			
    
    


	
    
    
    
    
    
    
    
    
    
    
    
    






	
    
    
    Color Research Cake Box CD-R 100-Pack
	
    
    
    
    
    Duracell Multi Pack AA, AAA, C, D Batteries
	
    
    
    
    
    D-Link Network Cloud IP Camera  WiFi Extender
	
    
    


	
    
    
  
    
    
    

	
    
    
    
    
  
    
    
    

	
    
    
    
    
  
    
    
    

	
    
    



	
    
    
                            
                       $24.99

                            
            
            
                    
                    
                    
                        
                        
                        $17
                        99
                        
                        
                    
                    
                    
                    
			
    
    
    
    
                    FREE SHIPPING
					
                            
                       $19.99

                            
            
            
                    
                    
                    
                        
                        
                        $9
                        99
                        
                        
                    
                    
                    
                    
			
    
    
    
    
                    FREE SHIPPING
					
                            
                       $59.99

                            
            
            
                    
                    
                    
                        
                        
                        $39
                        99
                        
                        
                    
                    
                    
                    
			
    
    


	
    
    Price After Rebate: $7.99*
    
    
    
    Price After Rebate: $4.99*
    
    
    
    
    
    










	
    
    
    
    


	
    
    
  
       
				
					
            
            
            
					
          
          
              
              
              
              
					
					
          Lexar 32GB Flash Drive with McAfee Multi-Access AV
					
          
              
              
              LJDTT32GASBNA and McAfee 2015 Multi Access 1 User 5 Devices
              


              
          
            
 							$98.99Save $99
              
              
              $59
              99
              
              
              Price After Rebate: FREE*
           
            
            
				
			
 
  
    
    



	
    
    
    
    


	
    
    
    
    






	
    
    
    
    


	
    
    
  
       
				
					
            
            
            
					
          
          
              
              
              
              
					
					
          Two Ultra Xfinity Surge Protector w 6FT Cord
					
          
              
              
              U12-43127
              


              
          
            
 							$14.99Save $15
              
              
              $13
              99
              
              
              Price After Rebate: FREE*
           
            
            
				
			
 
  
    
    



	
    
    
    
    


	
    
    
    
    





  

	
    
    
    Turbofrog SLR Camera Strap
	
    
    
    
    
	
    
    
    
    
    Belkin AV10044ttP Headphone Splitter
	
    
    
    
    
    Ultra Mini Travel USB Hub 4 Ports
	
    
    


	
    
    
  
    
    
    
    
	
    
    
    
    
  
    
    
    
    
	
    
    
    
    
  
    
    
    
    
	
    
    
    
    
  
    
    
    
    
	
    
    



	
    
    
                            
                       $9.99

                            
                        
                        
                        $4
                        99
                        
                        
							
    
    
    
    
                    Available in: 
					
                        
                        
                        $9
                        99
                        
                        
							
    
    
    
    
                            
                       $14.99

                            
                        
                        
                        $5
                        99
                        
                        
							
    
    
    
    
                            
                       $14.99

                            
                        
                        
                        $9
                        99
                        
                        
							
    
    


	
    
    Price After Rebate: FREE*
    
    
    
    Price After Rebate: FREE*
    
    
    
    Price After Rebate: FREE*
    
    
    
    Price After Rebate: FREE*
    
    














    

         
         
        
      
  
    
  
  
    
  
  
    
  
        
                  
                  
  
     
  
  
    
  
 
   
                    
  
    
  

      
        
       
 
                 
                

                
                
