 Store Locator  Forward to a Friend  Twitter Facebook Mobile Team Sports Exercise Footwear Apparel Golf Outdoors Fan Shop Clearance 2 DAYS - ONLINE ONLY | TAKE $10 OFF YOUR PURCHASE OF $50 OR MORE* + FREE SHIPPING ON PURCHASES OVER $25** | SHOP NOW > | Online only. Excludes PING. Additional Exclusions 
apply. See website for details. Offer valid through 5/20/14 at 11:59PM PT. FATHER'S DAY IS SUNDAY, JUNE 15TH | GIVE DAD A PERFECT DAY. SHOP ALL FATHER'S DAY DEALS NOW > | Text DAD to 34257 to receive notifications of Dad's Daily Deals Starting 
6/1.^   FACEBOOK >  TWITTER >  YOUTUBE >  INSTAGRAM >  PINTEREST >  

FROM: "DICK'S Sporting Goods" 
SUBJECT: 2 Days Only - Take $10 Off + Free Shipping on $25!


        
        
        DICK'S Sporting Goods

		
        






  
    
      
        
          




Shop Father's Day Online Weekly Deals!





              Never miss an email from 
        
      



          
            
              
                
              
              
              
            
            
              
                
              
              
              
            
            
              
                
              
              
                
                  
                  
                
              
            
          
        
        
          
            
              
              
            
            
              
              
            
          
          
            
          
        




  
  







  
  







              
                



  
   
  
  
   
	  
	   
	   
	   
	   
	   
	   
	  
	
  
  
   
  



                  
                    
                    






