EVERY SEASON STARTS AT DICK'S SPORTING GOODS    TEAM SPORTS EXERCISE FOOTWEAR APPAREL GOLF OUTDOORS FAN SHOP CLEARANCE  1 DAY ONLY! FREE SHIPPING NO MINIMUM PURCHASE* | SHOP ONLINE NOW > | Online only Excludes PING. Additional exclusions may apply. Offer valid through 3/24/15 11:59 PM PT. See website for details.  RECEIVE $20 IN DICK'S CASH WITH YOUR SAUCONY RUNNING SHOES PURCHASE OF $99.99 OR MORE** | SHOP SAUCONY NOW > | Offer valid in-store and online through 3/29/15. ENTER FOR A CHANCE TO WIN DICK'S LAST TEAM STANDING SWEEPSTAKES† | 2 GRAND PRIZES - 2 Grand Prizes of $250 Gift Cards | 10 FIRST PRIZES - 10 First Prizes of $50 Gift Cards | No purchase necessary. Contest begins 3/30/15 and ends 4/3/15.   FACEBOOK  TWITTER  YOUTUBE  INSTAGRAM  PINTEREST  

FROM: "DICK'S Sporting Goods" 
SUBJECT: Free Shipping No Minimum Purchase – 1 Day Only!




        
        
        DICK'S Sporting Goods

		




                








  
    
      
        
          







Limited Time: Receive $20 DICK’S Cash on Saucony!


 





              Never miss an email from 
        
      

  
   
	  
	  
	
  
  
   
  
  
   
	  
	   
	   
	  
	
  











  
  
  
   
  
  
  

























              
                



  
   
  
  
   
	  
	   
	   
	   
	   
	   
	   
	  
	
  
  
   
  



                  
                    
                    





