EVERY SEASON STARTS AT DICK'S SPORTING GOODS FREE SHIPPING NO MINIMUM PURCHASE*   TEAM SPORTS EXERCISE FOOTWEAR APPAREL GOLF OUTDOORS FAN SHOP CLEARANCE  BIG HOLIDAY SALE | SHOP EARLY! SAVE BIG! OWN CHRISTMAS! | STORES OPEN EARLY AT 7AM | FREE $10 DICK'S CASH TO THE FIRST 200 PEOPLE IN EVERY STORE† | Excludes PING. Valid 12/20 only. In-Store only. | FIND YOUR STORE > $15 FLEECE FOR THE FAMILY > | WALTER HAGEN AND REEBOK FLEECE | Reg. 35.00-60.00 50% OFF MEN'S AND WOMEN'S ADIDAS FLEECE > | Reg. 45.00-75.00 LAST CHANCE | EMAIL EXCLUSIVE - Must click through email to receive offer online. | TAKE $10 OFF YOUR PURCHASE OF $50 OR MORE** | IN-STORE AND ONLINE SHOP NOW > PRINT COUPON > In-store and online. Excludes PING. Additional exclusions may apply. Offer valid through 12/19/14 11:59 PM PT. | GIVE A GIFT THAT MATTERS BUY ONLINE PICK UP IN STORE | SHOP NOW>> GUARANTEED FOR HOLIDAY DELIVERY BY DEC.24 OR IT'S FREE | FRI 19 LAST DAY TO ORDER FOR STANDARD GROUND SHIPPING ORDER BY 11:59 PM PST   FACEBOOK  TWITTER  YOUTUBE  INSTAGRAM  PINTEREST  

FROM: "DICK'S Sporting Goods" 
SUBJECT: $10 Bonus Cash for 1st 200 Customers + Holiday Deals!




        
        
        DICK'S Sporting Goods

		




                








  
    
      
        
          



Final Hours to Take $10 Off Your Online Purchase! 
 





              Never miss an email from 
        
      


  
   
	  
	  
	
  
  
   
  
  
   
	  
	   
	   
	  
	
  







  

  

  
  
  
  
   
	  
	  
	
  















  
   

  
  












              
                



  
   
  
  
   
	  
	   
	   
	   
	   
	   
	   
	  
	
  
  
   
  



                  
                    
                    


