EVERY SEASON STARTS AT DICK'S SPORTING GOODS FREE SHIPPING ON PURCHASES OF $25 OR MORE*   TEAM SPORTS EXERCISE FOOTWEAR APPAREL GOLF OUTDOORS FAN SHOP CLEARANCE  CLEARANCE EVENT SAVE 30-60% ON SELECT CLEARANCE APPAREL, OUTTERWEAR AND FOOTWEAR WHEN YOU TAKE AN EXTRA 25% OFF CLEARANCE PRICES | SHOP NOW>> SHOP THIS WEEK'S CIRCULAR>> SALE 25% OFF | SAVE BIG ON EVERY LAYER OF OUTDOOR FUN WITH MEN'S OR WOMEN'S NIKE PRO COMPRESSION AND SELECT FLEECE APPAREL | ORIG $28-85 SALE 50% OFF MEN'S OR WOMEN'S ADIDAS ULTIMATE FLEECE WILL ADD COMFORT TO YOUR COOL | ORIG $45-65 SALE 50% OFF STAY WARM AND DRY WHEN YOU PLAY OUTSIDE WITH MEN'S OR WOMEN'S REEBOK COLD WEATHER APPAREL AND FLEECE | ORIG $35-55 Product Assortment Varies In-store and online EARN $25 IN DICK'S CASH ON ANY FITNESS EQUIPMENT, ATHLETIC APPAREL, FOOTWEAR OR PERFORMANCE TRACKING PURCHASE OF $150 OR MORE PRINT IN-STORE COUPON>> SHOP NOW>>    FACEBOOK  TWITTER  YOUTUBE  INSTAGRAM  PINTEREST  

FROM: "DICK'S Sporting Goods" 
SUBJECT: Save 30-60% Off Select Clearance!




        
        
        DICK'S Sporting Goods

		




                








  
    
      
        
          



Save 25% on Select Nike and More Deals from This Week’s Circular
 





              Never miss an email from 
        
      


  
   
	  
	  
	
  
  
   
  
  
   
	  
	   
	   
	  
	
  






  


     
      
      
      
      
      
      
      
      
      
      
      
      
      
      
      
      
      
      
      
      
      
















              
                



  
   
  
  
   
	  
	   
	   
	   
	   
	   
	   
	  
	
  
  
   
  



                  
                    
                    


