EVERY SEASON STARTS AT DICK'S SPORTING GOODS FREE SHIPPING ON PURCHASES OF $25 OR MORE*   TEAM SPORTS EXERCISE FOOTWEAR APPAREL GOLF OUTDOORS FAN SHOP CLEARANCE  CLEARANCE EVENT | SAVE 30-60% ON SELECT CLEARANCE APPAREL, OUTERWEAR AND FOOTWEAR** WHEN YOU TAKE AN EXTRA 25% OFF ON CLEARANCE PRICES | IN-STORE AND ONLINE. WHILE SUPPLIES LAST. FOR A LIMITED TIME ONLY | SHOP NOW > SHOP OUR WEEKLY CIRCULAR >   FACEBOOK  TWITTER  YOUTUBE  INSTAGRAM  PINTEREST  

FROM: "DICK'S Sporting Goods" 
SUBJECT: Save 30-60% on Select Clearance Apparel, Outerwear and Footwear




        
        
        DICK'S Sporting Goods

		




                








  
    
      
        
          



Save 25% on Select Nike and More Deals from This Week’s Circular
 





              Never miss an email from 
        
      

  
   
	  
	  
	
  
  
   
  
  
   
	  
	   
	   
	  
	
  







  
  
  
  













              
                



  
   
  
  
   
	  
	   
	   
	   
	   
	   
	   
	  
	
  
  
   
  



                  
                    
                    




