Priority Inbox TigerDirect.com Make sure your PC is State of the Art!  Make sure your PC is State of the Art!   Deal of the Day! Summer Clearance Text Message RSS twitter facebook

FROM: "TigerDirect.com" 
SUBJECT: 240GB SSD $69 | Dual-Core PC Kit $89 | Dual Band N Router $17 | 2TB Hard Drive $69 | Freebies*
                

TigerDirect.com | WEM4651 | Make sure your PC is State of the Art!











  
  
    
      









	
    
      
      Only For Tiger Insiders
        
    



          
            Computers
            TV  Video 
            Computer Parts
           
            Find Store			
            Daily Deal
			
                        Summer Clearance  
                         
			
            
          
        


      
      
        
          
		

        
		  
      
      
      
      
      




  
    
        
    

  

      
        
        
        
            
              
                
              
            
        
        
        
      
    
 

    
        
    





  



  
  
  OCZ 240GB Internal SSD
  $69* 

  
  
  Dual Core320GB PC Kit
  $89* 

  
  
  TRENDnet Dual Band Router
  $17 

  
  
  Seagate 2TBHard Drive
  $69 

  


  
  
        
        
        
            
  
    
      
  
    
  
    
    




    
        
            
            
              
               
                
                
                
              
          
        
    


  
    
  





    
    
    
    
    
  
  
    
  
  

      
  

         
        
      

  
    
  
  
    
  
  
    
  
    
  

 
                  
  
    
  
  
    

  
    
                    


        
       
 
                 
                

                
                
