Priority Inbox TigerDirect.com Happy Fourth of July HEW-102773028 ESN-102950065 HPR-102598682 B55-2084 DEI-102410414 KCE-102895769 DOU-102596623 JOS-102759191 S55-102864472 VHA-102972520 WED-102014227 DEI-102844893 VSU-102861722 YRU-102862462 WED-102586206 McAfee Multi-Access 1 User 5 Devices 1 year License<br><span style=font-size:12px>FREE SHIPPING</span> KMS-102109436 U12-41563 ULR-102388762 EMB-102878911 32T-102895991 Shop Now   Computers PC Parts TV Cell Phones Deal of the Day! SMS RSS twitter facebook

FROM: "TigerDirect.com" 
SUBJECT: 24Hr Price Alert: $119 New HP 24" Monitor w/ HDMI | 48" LED TV $269 | 5TB External HD $139

TigerDirect.com | WEBBP2553 | Happy Fourth of July






 
  




  
  
    
      
              
                 
                  





	
    
      
      Only For Tiger Insiders
        
    



          
            Computers
            TV  Video 
            Computer Parts
           
            Find Store			
            Daily Deal
			
                        Summer Clearance  
                         
                      
            
			
            
          
        


                
                 
                  
                  
					  
					    
					        
					          
                              
                              





                           













  

	
    
    
	
    
    
    
    
    HP AMD Quad Core8GB DDR3 Pro Desktop
	
    
    
    
    
	
    
    


	
    
    
  
    
    
    

	
    
    
    
    
  
    
    
    

	
    
    
    
    
  
    
    
    

	
    
    



	
    
    
                    FREE SHIPPING
					Refurbished
                            
                       $229.99

                            
            
            
                    
                    
                    
                        
                        
                        $149
                        99
                        
                        
                    
                    
                    
                    
			
    
    
    
    
                            
                       $569.99

                            
            
            
                    
                    
                    
                        
                        
                        $429
                        99
                        
                        
                    
                    
                    
                    
			
    
    
    
    
                    FREE SHIPPING
					
                            
                       $199

                            
            
            
                    
                    
                    
                        
                        
                        $179
                        00
                        
                        
                    
                    
                    
                    
			
    
    


	
    
    Price After Rebate: $119.99*
    
    
    
    
    
    
    
    
    
    











  

	
    
    
	
    
    
    
    
	
    
    
    
    
	
    
    
    
    
	
    
    


	
    
    
  
    
    
    
    
	
    
    
    
    
  
    
    
    
    
	
    
    
    
    
  
    
    
    
    
	
    
    
    
    
  
    
    
    
    
	
    
    



	
    
    
                            
                       $79.99

                            
                        
                        
                        $69
                        99
                        
                        
							
    
    
    
    Off-Lease
                            
                       $149.99

                            
                        
                        
                        $99
                        99
                        
                        
							
    
    
    
    
                    FREE SHIPPING
					
                            
                       $449.99

                            
                        
                        
                        $369
                        99
                        
                        
							
    
    
    
    Refurbished
                            
                       $999.99

                            
                        
                        
                        $699
                        99
                        
                        
							
    
    


	
    
    
    
    
    
    Price After Rebate: $89.99*
    
    
    
    Price After Rebate: $269.99*
    
    
    
    Price After Rebate: $599.99*
    
    












  

	
    
    
	
    
    
    
    
	
    
    
    
    
    Lexar JUMPDRIVEP20 128GB USB 3.0Flash Drive
	
    
    
    
    
    WD Elements 5TBDesktop Hard Drive
	
    
    


	
    
    
  
    
    
    
    
	
    
    
    
    
  
    
    
    
    
	
    
    
    
    
  
    
    
    
    
	
    
    
    
    
  
    
    
    
    
	
    
    



	
    
    
                            
                       $649.99

                            
                        
                        
                        $549
                        99
                        
                        
							
    
    
    
    
                        
                        
                        $249
                        99
                        
                        
							
    
    
    
    
                    FREE SHIPPING
					
                            
                       $149.99

                            
                        
                        
                        $64
                        99
                        
                        
							
    
    
    
    
                            
                       $199.99

                            
                        
                        
                        $139
                        
                        
							
    
    


	
    
    
    
    
    
    
    
    
    
    
    
    
    
       
             
              
      			$10 OFF
      			 RDO158332 
              
            
      		Ends 
                          7/6 11:59 PM ET
                          
                         
                       
        
    
    










  
    
      
    
  
  
      
      
      
      
      McAfee Multi-Access 1 User 5 Devices 1 year LicenseFREE SHIPPING
      
      
      
        
        
        
     After Rebate: 
     $79.99
       
        
       $34.99††
        
        
        
        
        
        
  
    $15 OFF
    Code: KGN158350
  
  
    Expires 7/6 11:59 pm
  

      
      
      
      







	
    
    
    LifeSmart 12,000BTU Portable AC 
	
    
    
    
    
    Ultra X4 Modular850-Watt ATXPower Supply
	
    
    
    
    
    Ultra AluminusAll-in-One MiniMedia Card Reader
	
    
    
    
    
    Royce Leather GPSTracker for LostWallets  Bags
	
    
    


	
    
    
  
    
    
    
    
	
    
    
    
    
  
    
    
    
    
	
    
    
    
    
  
    
    
    
    
	
    
    
    
    
  
    
    
    
    
	
    
    



	
    
    
                            
                       $599.95

                            
                        
                        
                        $269
                        99
                        
                        
							
    
    
    
    
                    FREE SHIPPING
					
                            
                       $169.99

                            
                        
                        
                        $109
                        99
                        
                        
							
    
    
    
    
                    FREE SHIPPING
					
                            
                       $29.99

                            
                        
                        
                        $14
                        99
                        
                        
							
    
    
    
    
                            
                       $50

                            
                        
                        
                        $19
                        99
                        
                        
							
    
    


	
    
    Price After Rebate: $239.99*
    
    
    
    Price After Rebate: $69.99*
    
    
    
    
    
    
    
    
    
    






	
    
    
    
    


	
    
    
  
       
				
					
            
            
            
					
          
          
              
              Available in: 
              
              
					
					
					
          
              
              
              
              


              
          
            
 							$29.99Save $23
              
              
              $6
              99
              
              
              
           
            
            
				
			
 
  
    
    



	
    
    
    
    


	
    
    
    
    







                 
                
                
                 
				            
				        
				      
			      

                   

 
                
                
                
                                 
         
         
         
         
         
         
         
         
         
         
         
        
        
            
            
              
               
                
                
                
              
          
        

 
                        
                      

                                
                                
                                
                                  
                                
                          
                          
                                
                                
  
    
    
    
    
  



	



	  
	 
     	
                      
                      
                      
                  
                      
                  
                  
                        
	
  

                      
                      
                      
               
                
                
                  
                  
                      
                
             
                  
                
                
         
         
     
                
                
                  
                
                
