EVERY SEASON STARTS AT DICK'S SPORTING GOODS FREE SHIPPING NO MINIMUM PURCHASE*   TEAM SPORTS EXERCISE FOOTWEAR APPAREL GOLF OUTDOORS FAN SHOP CLEARANCE  12 DAYS OF DEALS NOW THROUGH THURSDAY 12/18 | 20 NEW DEALS EVERY DAY | IN-STORE AND ONLINE | TODAY'S FEATURED DEAL UP TO $30 OFF ADULT AND YOUTH BASKETBALL SHOES | *Product assortment varies by store. | SHOP ALL DEALS >> GUARANTEED FOR HOLIDAY DELIVERY BY DEC.24 OR IT'S FREE | FRI 19 ON OR BEFORE THE 19TH SELECT STANDARD SHIPPING ORDER BY 11:59 PM PST | SAT 20 ON SATURDAY THE 20TH MUST SELECT 2 DAY SHIPPING ORDER BY 11:59 PM PST | SUN 21 ON SUNDAY THE 21ST MUST SELECT 1 DAY SHIPPING ORDER BY 
11:59 PM PST   FACEBOOK  TWITTER  YOUTUBE  INSTAGRAM  PINTEREST  

FROM: "DICK'S Sporting Goods" 
SUBJECT: Save up to $30 on Select Nike & adidas Basketball Shoes




        
        
        DICK'S Sporting Goods

		




                








  
    
      
        
          



Free Shipping No Minimum Purchase* 
 





              Never miss an email from 
        
      


  
   
	  
	  
	
  
  
   
  
  
   
	  
	   
	   
	  
	
  








  
  











  
  

  







              
                



  
   
  
  
   
	  
	   
	   
	   
	   
	   
	   
	  
	
  
  
   
  



                  
                    
                    


