 EVERY SEASON STARTS AT DICK'S SPORTING GOODS > FREE SHIPPING ON PURCHASES $49 OR MORE* TEAM SPORTS > EXERCISE > FOOTWEAR > APPAREL > GOLF > OUTDOORS > FAN SHOP > CLEARANCE > SAVE UP TO 40% ON CLEARANCE PRODUCTS | ONLINE ONLY | SHOP NOW >   FACEBOOK >  TWITTER >  YOUTUBE >  INSTAGRAM >  PINTEREST >  

FROM: "DICK'S Sporting Goods" 
SUBJECT: Save Up to 40% Off Select Clearance - Online Only!




        
        
        DICK'S Sporting Goods

		
        






  
    
      
        
          




Free Shipping on Purchases $49 or More!*





              Never miss an email from 
        
      



  
   
  
  
   
	  
	  
	
  
  
   
	  
	  
	
  





  
  












              
                



  
   
  
  
   
	  
	   
	   
	   
	   
	   
	   
	  
	
  
  
   
  



                  
                    
                    



*Offer only valid on items marked with the FREE SHIPPING Savings Alert message. Online only. Applies only for standard economy shipping and only up to a $15 shipping credit shown in the cart. Excludes PING. Discount does not apply to taxes or similar charges. Entire order must be shipped to a single address. Cannot be combined with any other offer nor is this valid on previous purchases. Only applies to orders to be shipped to a valid address in the United States, excluding Alaska and 


		




                      DICK'S Sporting Goods, 345 Court Street, Coraopolis, PA  15108
                      


Privacy Policy

Online Information
Price comparisons contained on this website are not valid in Arizona, Massachusetts or any other state in which such comparisons are not permitted. 

Questions?



                    
                  
            




