EVERY SEASON STARTS AT DICK'S SPORTING GOODS FREE SHIPPING NO MINIMUM PURCHASE*   TEAM SPORTS EXERCISE FOOTWEAR APPAREL GOLF OUTDOORS FAN SHOP CLEARANCE  TAKE 25% OFF YOUR ONLINE PURCHASE** | SHOP NOW > | Online only. Excludes PING. Additional exclusions may apply. See website for details. Offer valid through 12/1/14 11:59 PM PT. OVER 300 ONLINE ONLY DEALS | NOW THROUGH SATURDAY - OUR BIGGEST CYBER WEEK | SHOP NOW > LAST DAY! $25 DICK'S CASH WITH A PURCHASE OF $149 OR MORE ON THE NORTH FACE | Online only. See website for details. | SHOP THE NORTH FACE > 25% OFF - Men's, Women's and Youth UA Big Logo Hoodie | SHOP NOW > $15 OFF - Athletic and Casual Shoes $59.99 or More | SHOP NOW > 25% OFF - Primed Baseball Training Aids | SHOP NOW > GIVE A GIFT THAT MATTERS   FACEBOOK  TWITTER  YOUTUBE  INSTAGRAM  PINTEREST  

FROM: "DICK'S Sporting Goods" 
SUBJECT: 25% Off Your Online Purchase + Our Biggest Cyber Week Ever!




        
        
        DICK'S Sporting Goods

		




                








  
    
      
        
          



Last Day to Earn $25 Bonus Cash w/ The North Face Purchase
 





              Never miss an email from 
        
      


  
   
	  
	  
	
  
  
   
  
  
   
	  
	   
	   
	  
	
  







  
  
  
  
  
  
  
  
  
  
  
  
  
   
  

        















              
                



  
   
  
  
   
	  
	   
	   
	   
	   
	   
	   
	  
	
  
  
   
  



                  
                    
                    


