EVERY SEASON STARTS AT DICK'S SPORTING GOODS FREE SHIPPING NO MINIMUM PURCHASE*   TEAM SPORTS EXERCISE FOOTWEAR APPAREL GOLF OUTDOORS FAN SHOP CLEARANCE  OVER 300 ONLINE ONLY DEALS | NOW THROUGH SATURDAY | OUR BIGGEST CYBER WEEK | SHOP NOW > $25 DICK'S CASH WITH A PURCHASE OF $149 OR MORE ON THE NORTH FACE | ONLINE ONLY. SEE WEBSITE FOR DETAILS | SHOP THE NORTH FACE > 25% OFF NIKE PRO MEN'S, WOMEN'S AND YOUTH > | ORIG. $22.00-150.00 | Give them the gift of a cool, comfortable workout. $15 OFF ATHLETIC AND CASUAL SHOES $59.99 OR MORE > | New kicks under the tree will give them a step up in 2015. | ONLINE ONLY GIVE THE GIFT THAT ALWAYS FITS > | Redeemable online or in store. Buy online and we will ship it right to their door with a personalized message. | GIVE A GIFT THAT MATTERS SHOP OUR WEEKLY CIRCULAR >   FACEBOOK  TWITTER  YOUTUBE  INSTAGRAM  PINTEREST  

FROM: "DICK'S Sporting Goods" 
SUBJECT: Huge Cyber Savings on Nike & The North Face. It's Cyber Thursday!




        
        
        DICK'S Sporting Goods

		




                








  
    
      
        
          



Free Shipping No Minimum Purchase* 
 





              Never miss an email from 
        
      


  
   
	  
	  
	
  
  
   
  
  
   
	  
	   
	   
	  
	
  






 
  
  
  
  
  
  
  
  
  
  
  
  
  
  
  
  
  
  




        















              
                



  
   
  
  
   
	  
	   
	   
	   
	   
	   
	   
	  
	
  
  
   
  



                  
                    
                    


