EVERY SEASON STARTS AT DICK'S SPORTING GOODS >> FREE SHIPPING ON PURCHASES OF $49 OR MORE*   TEAM SPORTS >> EXERCISE >> FOOTWEAR >> APPAREL >> GOLF >> OUTDOORS >> FAN SHOP >> CLEARANCE >>  LAST DAY! TAKE $20 OFF YOUR PURCHASE OF $100 OR MORE** | SHOP NOW > | ONLINE ONLY. Excludes PING. Additional exclusions may apply. Offer valid through 8/13/14 11:59 PM PT. $10 DICK'S CASH WITH YOUR BACKPACK PURCHASE OF $59 OR MORE | SHOP NOW> FIND YOUR PERFECT BACKPACK | BACKPACK SELECTOR>   FACEBOOK >  TWITTER >  YOUTUBE >  INSTAGRAM >  PINTEREST >  

FROM: "DICK'S Sporting Goods" 
SUBJECT: Last Day to Save $20 Off Your Online Purchase!




        
        
        DICK'S Sporting Goods

		

                






  
    
      
        
          




Free Shipping on Backpacks, Footwear & Apparel*





              Never miss an email from 
        
      


  
   
	  
	  
	
  
  
   
  
  
   
	  
	   
	   
	  
	
  





        
		   
			  
	                






  
  







              
                



  
   
  
  
   
	  
	   
	   
	   
	   
	   
	   
	  
	
  
  
   
  



                  
                    
                    



*Offer only valid on items marked with the FREE SHIPPING Savings Alert message. Online only. Applies only for standard economy shipping and only up to a $15 shipping credit shown in the cart. Excludes Beats by Dr. Dre and PING. Discount does not apply to taxes or similar charges. Entire order must be shipped to a single address. Cannot be combined with any other offer nor is this valid on previous purchases. Only applies to orders to be shipped to a valid address in the United States, 










                      DICK'S Sporting Goods, 345 Court Street, Coraopolis, PA  15108
                      


Privacy Policy

Online Information
Price comparisons contained on this website are not valid in Arizona, Massachusetts or any other state in which such comparisons are not permitted. 

Questions?



                    
                  




