EVERY SEASON STARTS AT DICK'S SPORTING GOODS    TEAM SPORTS EXERCISE FOOTWEAR APPAREL GOLF OUTDOORS FAN SHOP CLEARANCE  2 DAYS ONLY! | FREE SHIPPING NO MINIMUM PURCHASE* | SHOP ONLINE NOW | Online only. Excludes PING. Offer valid through 9/15/14 11:59 PM PT. See website for details.   FACEBOOK  TWITTER  YOUTUBE  INSTAGRAM  PINTEREST  

FROM: "DICK'S Sporting Goods" 
SUBJECT: 2 Days Free Shipping!




        
        
        DICK'S Sporting Goods

		




                








  
    
      
        
          




No Minimum Purchase to Qualify. Start Shopping Online!





              Never miss an email from 
        
      


  
   
	  
	  
	
  
  
   
  
  
   
	  
	   
	   
	  
	
  





  
  













              
                



  
   
  
  
   
	  
	   
	   
	   
	   
	   
	   
	  
	
  
  
   
  



                  
                    
                    



*Offer valid through 9/15/14 11:59PM PT. Offer only valid on items marked with the FREE SHIPPING Savings Alert message. Online only. Applies only for standard economy shipping and only up to a $15 shipping credit shown in the cart. Excludes PING. Discount does not apply to taxes or similar charges. Entire order must be shipped to a single address. Cannot be combined with any other offer nor is this valid on previous purchases. Only applies to orders to be shipped to a valid address in the United States, excluding Alaska and 







                      DICK'S Sporting Goods, 345 Court Street, Coraopolis, PA  15108
                      


Privacy Policy

Online Information
Price comparisons contained on this website are not valid in Arizona, Massachusetts or any other state in which such comparisons are not permitted. 

Questions?



                    
                  
            




