Priority Inbox TigerDirect.com Best Deals For Mom This Mother's Day       Best Deals For Mom This Mother's Day             Deal of the Day!  Text Message        RSS twitter facebook                     

FROM: "TigerDirect.com" 
SUBJECT: Amazing Tech Deals: FREE* Logitech Speaker & McAfee Bundle | $69 Android 7” Tablet - Buy 1 Get 1

 
  TigerDirect.com | WEM4520 | Best Deals For Mom This Mother's Day
 
 
  
  
    
  
  
   
    
     
     
      
       
        
        
       
       
        
        
         
          
           
           Only For Tiger Insiders
          
         
        
        
       
       
        
        
         
          
           Computers
           TV  Video 
           Computer Parts
           Find Store
           Daily Deal
           Mother's Day Sale
          
         
        
        
       
      
     
     
    
    
     
      
       
       
      
     
     
      
       
          
       
       
        
        
         
          
           
           
           
            
             
             
            
           
           
           
          
         
        
        
       
       
          
       
      
     
     
      
       
        
        
         
          
              
           
              
             PNY 256GB 
             
           
              Lenovo 
           
              
          
         
        
        
       
      
     
     
      
       
        
       
      
     
     
    
    
     
     
      
       
        
        
         
          
           
          
          
           
           
            
             
              
              
               
                
                
               
              
              
             
             
              
             
             
              
              
              
              
              
              
              
             
             
              
             
            
           
           
          
          
           
          
         
        
        
       
      
     
     
    
   
  
  
   
    
     
    
    
     
    
    
     
    
    
     
    
    
     
    
    
     
     
      
       
        
       
       
        
        
       
       
        
        
       
      
     
     
    
    
     
    
   
  
  
   
    
     
     
      
       
        
        
       
       
        
        *PRICE AFTER MAIL-IN REBATES. CLICK ITEM FOR DETAILS.
        ** FREE shipping applies only to products that appear in this email or landing page. Orders ship via Econoship delivery to residential addresses only in the 48 continental United States. Oversized orders that require delivery by truck do not qualify. Business, commercial or reseller orders do not qualify.
        Prices valid thru 5/7/2015  11:59 PM ET unless otherwise noted. Not responsible for typographical,                  technical, or descriptive errors of products herein. Prices are subject to change. Items may be available                  online or by phone only--prices and availability in TigerDirect stores may be limited.
        Call us at (800) 800-8300.REFERENCE PRIORITY CODE: WEM4520
        
        
       
       
        
        
                                                                  
        
        
       
       
        
        
        PERMISSION SETTINGS:                 Our records indicate we have your permission to send email to the following address:                 rikin2344@gmail.com
        
        
       
      
     
     
    
   
  
  
  
   
    
     
     
     
     
     
     
     
     
     
     
     
     
     
     
     
     
     
     
     
     
    
   
  


