Priority Inbox TigerDirect.com Clip your last Coupon with these Deals       Clip your last Coupon with these Deals      Deal of the Day!  Summer Clearance Text Message       RSS twitter facebook                     

FROM: "TigerDirect.com" 
SUBJECT: It's Arrived! TigerDirect September Coupon Book

 
  TigerDirect.com | WEM4646 | Clip your last Coupon with these Deals
 
 
  
  
    
  
  
  
  
   
    
     
     
      
       
        
        
         
          
           
           
            
             
              
              
             
             
              
              
               
                
                 
                 Only For Tiger Insiders
                
               
              
              
             
             
              
              
               
                
                 Computers
                 TV  Video 
                 Computer Parts
                 Find Store
                 Daily Deal
                 Summer Clearance
                
               
              
              
             
            
           
           
          
          
           
            
             
             
            
           
           
           
            
             
                
             
             
              
              
               
                
                 
                 
                 
                  
                   
                   
                  
                 
                 
                 
                
               
              
              
             
             
                
             
            
           
           
            
             
              
              
               
                
                 
                 
                 
                
               
              
              
             
            
           
           
            
             
              
             
            
           
           
          
          
           
           
            
             
              
              
               
                
                 
                
                
                 
                 
                  
                   
                   
                  
                 
                 
                  
                   
                                   
                    
                    
                    
                                   
                   
                  
                 
                 
                  
                   
                    
                   
                  
                 
                 
                
                
                 
                
               
              
              
             
            
           
           
          
         
        
        
         
          
           
          
          
           
          
          
           
          
          
           
          
          
           
          
          
           
          
          
           
           
            
             
              
             
             
              
              
             
             
              
              
             
            
           
           
          
         
        
        
         
          
           
           
            
             
              
              
             
             
              
              *PRICE AFTER MAIL-IN REBATES. CLICK ITEM FOR DETAILS.
              ** FREE shipping applies only to products that appear in this email or landing page. Orders ship via Econoship delivery to residential addresses only in the 48 continental United States. Oversized orders that require delivery by truck do not qualify. Business, commercial or reseller orders do not qualify.
              Prices valid thru 9/13/2015  11:59 PM ET unless otherwise noted. Not responsible for typographical,                  technical, or descriptive errors of products herein. Prices are subject to change. Items may be available                  online or by phone only--prices and availability in TigerDirect stores may be limited.
              Call us at (800) 800-8300.REFERENCE PRIORITY CODE: WEM4646
              
              
             
             
              
              
                                                                        
              
              
             
             
              
              
              PERMISSION SETTINGS:                 Our records indicate we have your permission to send email to the following address:                 rikin2344@gmail.com
              
              
             
            
           
           
          
         
        
        
       
      
     
     
    
   
  
  
  
   
    
     
     
     
     
     
     
     
     
     
     
     
     
     
     
     
     
     
     
     
     
    
   
  


