Priority Inbox TigerDirect.com Save by building & customizing your PC!  Save by building & customizing your PC!   Deal of the Day! Summer Clearance Text Message RSS twitter facebook

FROM: "TigerDirect.com" 
SUBJECT: 4TB Seagate NAS Hard Drive | 100-pk DVD-R $9.99 | Corsair 430w PSU $19
                

TigerDirect.com | WEM4644 | Save by building & customizing your PC!











  
  
    
      









	
    
      
      Only For Tiger Insiders
        
    



          
            Computers
            TV  Video 
            Computer Parts
           
            Find Store			
            Daily Deal
			
                        Summer Clearance  
                         
			
            
          
        


      
      
        
          
		

        
		  
      
      
      
      
      




  
    
        
    

  

      
        
        
        
            
              
                
              
            
        
        
        
      
    
 

    
        
    





  



  
  
  Seagate Central4TB NAS
  $109 

  
  
  $279* 

  
  
  Corsair CX Series 430W PSU
  $19* 

  
  
  100 Pack DVD-R Blank Media
  $9* 


  


  
  
        
        
        
            
  
    
      
  
    
  
    
    




    
        
            
            
              
               
                
                
                
              
          
        
    


  
    
  





    
    
    
    
    
  
  
    
  
  

      
  

         
        
      

  
    
  
  
    
  
  
    
  
  
  
  
  

 
                  
  
    
  
  
    

  
    
                    


        
       
 
                 
                

                
                
