Priority Inbox TigerDirect.com Network everything w/ Lenovo LQW-102521372 LQW-102507595 LQW-102519906 LQW-102507601 LQW-102870943 LQW-102665621 LQW-102908159 LEO-102863814D Microsoft Windows Server 2012 Standard Software XEA-102189341 VDA-102106561 ESN-102895976 SGI-101801369  Computers PC Parts TV Cell Phones Deal of the Day! Microsoft Surface SMS RSS twitter facebook

FROM: "TigerDirect.com" 
SUBJECT: Think Lenovo: Rack Mount Core i3 Server $429 | NEW Pro Laptop $229

TigerDirect.com | WEBBP2485 | Network everything w/ Lenovo






 
  




  
  
    
      
              
                 
                  





	
    
      
      Only For Tiger Insiders
        
    



          
            Computers
            TV  Video 
            Computer Parts
           
            Find Store			
            Daily Deal
			
                        Spring Clearance: Start Saving! 
                        
            
          
        


                
                 
                  
                  
					  
					    
					        
					          
                              
                              




       


















  

	
    
    
	
    
    
    
    
	
    
    
    
    
	
    
    


	
    
    
  
    
    
    

	
    
    
    
    
  
    
    
    

	
    
    
    
    
  
    
    
    

	
    
    



	
    
    
                            
                       $829.99

                            
            
            
                    
                    
                    
                        
                        
                        $599
                        99
                        
                        
                    
                    
                    
                    
			
    
    
    
    
                            
                       $1179.99

                            
            
            
                    
                    
                    
                        
                        
                        $949
                        99
                        
                        
                    
                    
                    
                    
			
    
    
    
    
                            
                       $2129.99

                            
            
            
                    
                    
                    
                        
                        
                        $1849
                        99
                        
                        
                    
                    
                    
                    
			
    
    


	
    
    
    
    
    
    
    
    
    
    
    
    






	
    
    
	
    
    
    
    
	
    
    
    
    
	
    
    


	
    
    
  
    
    
    

	
    
    
    
    
  
    
    
    

	
    
    
    
    
  
    
    
    

	
    
    



	
    
    
                            
                       $1349.99

                            
            
            
                    
                    
                    
                        
                        
                        $1029
                        99
                        
                        
                    
                    
                    
                    
			
    
    
    
    
                            
                       $1599.99

                            
            
            
                    
                    
                    
                        
                        
                        $1279
                        99
                        
                        
                    
                    
                    
                    
			
    
    
    
    
                            
                       $2599.99

                            
            
            
                    
                    
                    
                        
                        
                        $2249
                        99
                        
                        
                    
                    
                    
                    
			
    
    


	
    
    
    
    
    
    
    
    
    
    
    
    











  
    
      
    
  
  
      
      
      
      
      
      Microsoft Windows Server 2012 Standard Software
      
      
        
        
        
      FREE SHIPPING
       
        
       $668.99
        
        
        
        
        
      
      
      






	
    
    
	
    
    
    
    
    ADATA Premier 64GB MicroSDXC Flash Card
	
    
    
    
    
    Element 22in 720p 60Hz LED HDTV
	
    
    
    
    
    Seagate 2TB Desktop Solid State Hybrid Drives
	
    
    


	
    
    
  
    
    
    
    
	
    
    
    
    
  
    
    
    
    
	
    
    
    
    
  
    
    
    
    
	
    
    
    
    
  
    
    
    
    
	
    
    



	
    
    
                    You must click from the email for exclusive price
					
                    FREE SHIPPING
					
                            
                       $99.99

                            
                        
                        
                        $59
                        99
                        
                        
							
    
    
    
    
                            
                       $39.99

                            
                        
                        
                        $24
                        99
                        
                        
							
    
    
    
    
                    FREE SHIPPING
					Refurbished
                            
                       $129.99

                            
                        
                        
                        $89
                        99
                        
                        
							
    
    
    
    
                    You must click from the email for exclusive price
					
                    FREE SHIPPING
					
                            
                       $169.99

                            
                        
                        
                        $99
                        99
                        
                        
							
    
    


	
    
    
    
    
    
    
    
    
    
    Price After Rebate: $79.99*
    
    
    
    
    
    









                 
                
                
                 
				            
				        
				      
			      

                   

 
                
                
           
 
                        
                      

                                
                                
                                
                                  
                                
                          
                          
                                
                                
  
    
    
    
    
  



	



	  
	 
     	
                      
                      
                      
                  
                      
                  
                  
                  

    
                  
                  
                  
	
  

                      
                      
                      
               
                
                
                  
                  
                      
  
    
  
  
    
    
  
  
    
    
  

                
             
                  
                
                
         
         
     
                
                
                  
                
                
