Priority Inbox TigerDirect.com Email Exclusive: Free Shipping Deals OCE-102854879 OCE-102854880 Shop Now DEY-102684509 HPR-102500341 WAQ-102878764B UIU-102519702 FEI-102333558 UAM-102896224 Shop Now KNY-102513264 VI3-101764381 W101-1012 24I-102869956 32T-102897157 C175-1026 AEM-102371005  Computers PC Parts TV Cell Phones Deal of the Day! Microsoft Surface SMS RSS twitter facebook

FROM: "TigerDirect.com" 
SUBJECT: Free Shipping Deals ➡ Powerhouse Laptops from $429, 128GB USB $37

TigerDirect.com | WEBBP2484 | Email Exclusive: Free Shipping Deals






 
  




  
  
    
      
              
                 
                  





	
    
      
      Only For Tiger Insiders
        
    



          
            Computers
            TV  Video 
            Computer Parts
           
            Find Store			
            Daily Deal
			
                        Mother's Day Sale  
                         
                      
            
			
            
          
        


                
                 
                  
                  
					  
					    
					        
					          
                              
                              




       













  

	
    
    
    
    


	
    
    
  
       
				
					
            
            
            
					
          
          
              
              FREE SHIPPING
              
              
					
					
					
          
              
              
              


              
          
            
 							$549.99Save $120
              
              
              $429
              99
              
              
              
           
            
            
				
			
 
  
    
    



	
    
    
    
    


	
    
    
    
    





  

	
    
    
	
    
    
    
    
	
    
    
    
    
	
    
    
    
    
    Defender D1 Wireless 8CH 6Cam 520TVL 1TB HDD Kit
	
    
    


	
    
    
  
    
    
    
    
	
    
    
    
    
  
    
    
    
    
	
    
    
    
    
  
    
    
    
    
	
    
    
    
    
  
    
    
    
    
	
    
    



	
    
    
                    FREE SHIPPING
					
                            
                       $970

                            
                        
                        
                        $529
                        99
                        
                        
							
    
    
    
    
                    FREE SHIPPING
					
                            
                       $629.99

                            
                        
                        
                        $479
                        99
                        
                        
							
    
    
    
    
                    FREE SHIPPING
					
                        
                        
                        $69
                        99
                        
                        
							
    
    
    
    
                    FREE SHIPPING
					
                            
                       $1379.99

                            
                        
                        
                        $699
                        99
                        
                        
							
    
    


	
    
    
    
    
    
    
    
    
    
    
    
    
    
    
    
    











  

	
    
    
    
    


	
    
    
  
       
				
					
            
            
            
					
          
          
              
              FREE SHIPPING
              
              
					
					
					
          
              
              
              3D, Quad Core Processor, WiFi, USB, 4x HDMI Ports, VESA Compatible, Voice Interaction
              


              
          
            
 							$2699.99Save $1602
              
              
              $1097
              99
              
              
              
           
            
            
				
			
 
  
    
    



	
    
    
    
    


	
    
    
    
    








  
  






	
    
    
    HP x702w 128GB USB 3.0 Flash Drive
	
    
    
    
    
    RockDoc Pitbull Bluetooth 1 Way Speaker
	
    
    
    
    
    Wicked Audio GoldPlated PLG Metallics Headphones
	
    
    


	
    
    
  
    
    
    

	
    
    
    
    
  
    
    
    

	
    
    
    
    
  
    
    
    

	
    
    



	
    
    
                    FREE SHIPPING
					
                            
                       $59.99

                            
            
            
                    
                    
                    
                        
                        
                        $34
                        99
                        
                        
                    
                    
                    
                    
			
    
    
    
    
                    FREE SHIPPING
					
                            
                       $49.99

                            
            
            
                    
                    
                    
                        
                        
                        $19
                        99
                        
                        
                    
                    
                    
                    
			
    
    
    
    
                    Available in:FREE SHIPPING
					
                            
                       $29.99

                            
            
            
                    
                    
                    
                        
                        
                        $14
                        99
                        
                        
                    
                    
                    
                    
			
    
    


	
    
    
    
    
    
    
    
    
    
    
    
    





  
  






	
    
    
    Bill Blass Haysville 4 Piece Spinner Set B2826-3
	
    
    
    
    
	
    
    
    
    
    Cuisinart Sandwich Grill 
	
    
    
    
    
    IngeniLED LED PAR30 Light Bulb
	
    
    


	
    
    
  
    
    
    
    
	
    
    
    
    
  
    
    
    
    
	
    
    
    
    
  
    
    
    
    
	
    
    
    
    
  
    
    
    
    
	
    
    



	
    
    
                    FREE SHIPPING
					
                            
                       $820

                            
                        
                        
                        $114
                        99
                        
                        
							
    
    
    
    
                    FREE SHIPPING
					
                        
                        
                        $7
                        99
                        
                        
							
    
    
    
    
                    FREE SHIPPING
					
                            
                       $39.99

                            
                        
                        
                        $19
                        99
                        
                        
							
    
    
    
    
                    FREE SHIPPING
					
                            
                       $29.99

                            
                        
                        
                        $18
                        99
                        
                        
							
    
    


	
    
    
    
    
    
    
    
    
    
    
    
    
    
    
    
    













                 
                
                
                 
				            
				        
				      
			      

                   

 
                
                
           
 
                        
                      

                                
                                
                                
                                  
                                
                          
                          
                                
                                
  
    
    
    
    
  



	



	  
	 
     	
                      
                      
                      
                  
                      
                  
                  
                  

    
                  
                  
                  
	
  

                      
                      
                      
               
                
                
                  
                  
                      
  
    
  
  
    
    
  
  
    
    
  

                
             
                  
                
                
         
         
     
                
                
                  
                
                
