EVERY SEASON STARTS AT DICK'S SPORTING GOODS FREE SHIPPING NO MINIMUM PURCHASE*   TEAM SPORTS EXERCISE FOOTWEAR APPAREL GOLF OUTDOORS FAN SHOP CLEARANCE  TRICK OR TREAT | NO TRICKS. JUST TREATS. ENTER TREAT AT THE CHECKOUT TO TAKE $10 OFF A $50 PURCHASE** | SHOP NOW >   FACEBOOK  TWITTER  YOUTUBE  INSTAGRAM  PINTEREST  

FROM: "DICK'S Sporting Goods" 
SUBJECT: No Tricks, Just A TREAT. Save $10 Online!




        
        
        DICK'S Sporting Goods

		




                








  
    
      
        
          




Free Shipping With No Minimum Purchase*
 





              Never miss an email from 
        
      


  
   
	  
	  
	
  
  
   
  
  
   
	  
	   
	   
	  
	
  







  
  

        














              
                



  
   
  
  
   
	  
	   
	   
	   
	   
	   
	   
	  
	
  
  
   
  



                  
                    
                    



