EVERY SEASON STARTS AT DICK'S SPORTING GOODS FREE SHIPPING + FREE RETURNS ON APPAREL & FOOTWEAR*   TEAM SPORTS EXERCISE FOOTWEAR APPAREL GOLF OUTDOORS FAN SHOP CLEARANCE  NIKE 25% OFF IN-STORE &#38; ONLINE || $13.50-93.74 SELECT MEN&#39;S, WOMEN&#39;S AND YOUTH NIKE APPAREL AND ATHLETIC FOOTWEAR REG. 18.00-124.99 || SHOP NOW &#62; SHOP MEN&#39;S &#62; SHOP WOMEN&#39;S &#62; SHOP YOUTH &#62;   FACEBOOK  TWITTER  YOUTUBE  INSTAGRAM  PINTEREST  

FROM: "DICK'S Sporting Goods" 
SUBJECT: 25% Off Select Nike Apparel & Footwear - This Week Only!




        
        
        DICK'S Sporting Goods

		
								
								







  
    
      
        
          



Free Shipping + Free Returns on Footwear & Apparel!*
 




              Never miss an email from 
        
      

  
   
	  
	  
	
  
  
   
  
  
   
	  
	   
	   
	  
	
  




	
		
				
	
	
		
				
		
				
		
				
	


        














              
                



  
   
  
  
   
	  
	   
	   
	   
	   
	   
	   
	  
	
  
  
   
  



                  
                    
                    





