Priority Inbox TigerDirect.com XEA-102345971     Deal of the Day! RSS twitter facebook

FROM: "TigerDirect.com" 
SUBJECT: You Left Something at Tiger...
 
  TigerDirect.com |WEBCART250 |Hello Rikin, Forgot Something?
 
 
  
  
  
  
  
  
   
    
     
     
      
       
        
        
         
          
           
           
            
             
              
              
             
             
              
              
               
                
                 
                
               
              
              
             
             
              
              
               
                
                 Computers
                 TV  Video 
                 Computer Parts
                 Find Store
                 Daily Deal
                 Coupon Deals
                
               
              
              
             
            
           
           
          
         
        
        
       
       
        
        
         
          
           
           
            
             
              Hello Rikin,
             
             
              Ready to Checkout?
             
             
              Deals at TigerDirect sell out fast.Act now before these deals expire!
             
             
              
              
               
                
                 Check Out Now
                
               
              
              
             
             
             
            
           
           
          
         
        
        
       
       
       
       
        
        
         
          
           Your shopping cart
          
          
           

                  
                  	
                    	
                        
                        	
                            
                            	
                                	Seagate Expansion 2TB Portable Hard Disk Drive
                                	
                                	  Instantly add 1TB of storage space to your PC laptops and other devices or keep your files by your side while you travel.
                              	  
                                	
                                	  SKU: XEA-102345971
                              	  
                                	
                                
                                
                            
                            

                            	
                                	
                                
                                	
                                
                                	View Product
                                
                            
                            
                        
                    
                    
                  
                 
           
            
             
              Note: Please note that pricing and availability may have changed since you added to cart.Your shopping cart expires in 72 hours and it will only be visible on the device you created it on.
              
              
               
                
                 Check Out Now
                
               
              
              
             
            
           
           
          
         
        
        
       
       
       
       
        
        
         
          
           
           
            
             
              
              Need Help?
             
             
              Call us anytime at (800) 800-8300 7 days a week.
             
            
           
           
           
           
            
             
              
              Friend Us
             
             
             
            
           
           
           
           
            
             
              
              Take a Brief Survey
             
             
              Your shopping experience is our top priorty.
             
            
           
           
          
         
        
        
       
       
        
       
       
       
       
        
       
       
       
       
        
        
         
          
           
           
            
             
              
              
             
             
              
              
              *PRICE AFTER MAIL-IN REBATES. CLICK ITEM FOR DETAILS.
              Prices valid thru 11/30/14 11:59 PM ET unless otherwise noted. Not responsible for typographical, technical, or descriptive errors of products herein. Prices are subject to change. Items may be available online or by phone only--prices and availability in TigerDirect stores may be limited.
              Call us at (800) 800-8300.REFERENCE PRIORITY CODE: WEBCART250
              
              
             
             
              
              
               
              
              
             
             
              
              
              PERMISSION SETTINGS:Our records indicate we have your permission to send email to the following address:rikin2344@gmail.com
              Subscription Center:If you wish to UNSUBSCRIBE click here or go to: http://www.tigerdirect.com/applications/email/emailmanager.asp
              
              
             
            
           
           
          
         
        
        
       
      
     
     
    
   
  




