Priority Inbox TigerDirect.com Help big ideas get off the ground  Help big ideas get off the ground Deal of the Day! Microsoft Surface Text Message RSS twitter facebook

FROM: "TigerDirect.com" 
SUBJECT: Buy 1 Get 1 7” Tablet $69 | i5 Notebook $239 | 256GB USB $89
                

TigerDirect.com | WEM4547 | Help big ideas get off the ground











  





	
    
      
      Only For Tiger Insiders
        
    



          
            Computers
            TV  Video 
            Computer Parts
           
            Find Store			
            Daily Deal
			
                        Graduation Gift Guide  
                         
                      
            
			
            
          
        


      
      
        
          
		
		
		  
      
      
      
      
      



  
    
        
    

  

      
        
        
        
            
              
                
              
            
        
        
        
      
    
 

    
        
    



  



  
  
  $239.99*									 

  
  
  $69									 

  
  
  256GBUSB								
  $89									 

  
  
  $479									 



  


  
  
        
        
        
            
  
    
      
  
    
  
    
    


    
    
    
    
    
  
  
    
  
  

      
  

         
        
      

  
    
  
  
    
  
  
    
  
  
      
                  
                  
                  
  
    
  
  
    
  
  
 
  
                    
  
    
  

        
       
 
                 
                

                
                
