EVERY SEASON STARTS AT DICK'S SPORTING GOODS >> FREE SHIPPING ON BACKPACKS, FOOTWEAR &#38; APPAREL OR PURCHASES OF $49 OR MORE*   TEAM SPORTS >> EXERCISE >> FOOTWEAR >> APPAREL >> GOLF >> OUTDOORS >> FAN SHOP >> CLEARANCE >>  2 DAYS ONLY! TAKE $10 OFF YOUR PURCHASE OF $50 OR MORE** | SHOP NOW > | Online only. Excludes PING. Additional exclusions may apply. Offer valid through 8/20/14 11:59 PM 
PT. 1 WEEK ONLY! - TAKE 25% OFF SELECT adidas BACKPACKS - Valid now through 8/23/14 | SHOP NOW >> FIND YOUR PERFECT PACK | BACKPACK SELECTOR >>   FACEBOOK >  TWITTER >  YOUTUBE >  INSTAGRAM >  PINTEREST >  

FROM: "DICK'S Sporting Goods" 
SUBJECT: The 2 Day Online Event Starts Today!




        
        
        DICK'S Sporting Goods

		


                






  
    
      
        
          




Free Shipping on Backpacks, Footwear & Apparel or Purchases of $49 or More*





              Never miss an email from 
        
      


  
   
	  
	  
	
  
  
   
  
  
   
	  
	   
	   
	  
	
  





  
  








  
   



  
   







              
                



  
   
  
  
   
	  
	   
	   
	   
	   
	   
	   
	  
	
  
  
   
  



                  
                    
                    



*Offer only valid on items marked with the FREE SHIPPING Savings Alert message. Online only. Applies only for standard economy shipping and only up to a $15 shipping credit shown in the cart. Excludes Beats by Dr. Dre and PING. Discount does not apply to taxes or similar charges. Entire order must be shipped to a single address. Cannot be combined with any other offer nor is this valid on previous purchases. Only applies to orders to be shipped to a valid address in the United States, 










                      DICK'S Sporting Goods, 345 Court Street, Coraopolis, PA  15108
                      


Privacy Policy

Online Information
Price comparisons contained on this website are not valid in Arizona, Massachusetts or any other state in which such comparisons are not permitted. 

Questions?



                    
                  




