EVERY SEASON STARTS AT DICK'S SPORTING GOODS FREE SHIPPING ON PURCHASES OF $49 OR MORE*   TEAM SPORTS EXERCISE FOOTWEAR APPAREL GOLF OUTDOORS FAN SHOP CLEARANCE  LUCKY DAY SALE | LAST CHANCE! | $20 OFF YOUR PURCHASE OF $100 OR MORE** | Online only. Excludes PING. Additional exclusions may apply.
Offer valid through 3/18/15 11:59PM PT. | SHOP NOW > WHO WILL YOU BE? | WATCH VIDEO >   FACEBOOK  TWITTER  YOUTUBE  INSTAGRAM  PINTEREST  

FROM: "DICK'S Sporting Goods" 
SUBJECT: Last Chance! Take $20 Off Your Online Purchase!




        
        
        DICK'S Sporting Goods

		




                








  
    
      
        
          




Plus, Free Shipping on Purchases of $49 or more!* 
 





              Never miss an email from 
        
      

  
   
	  
	  
	
  
  
   
  
  
   
	  
	   
	   
	  
	
  







  
  

        

























              
                



  
   
  
  
   
	  
	   
	   
	   
	   
	   
	   
	  
	
  
  
   
  



                  
                    
                    





