EVERY SEASON STARTS AT DICK'S SPORTING GOODS    TEAM SPORTS EXERCISE FOOTWEAR APPAREL GOLF OUTDOORS FAN SHOP CLEARANCE  LAST DAY | TAKE $20 OFF YOUR PURCHASE OF $100 OR MORE* | + FREE SHIPPING ON ORDERS OF $25 OR MORE** | Enter code MEMDAY20 at checkout to receive offer. | SHOP NOW > | Must enter code at checkout. Not combinable with any other offers. Online Only. Excludes PING. Additional exclusions may apply. Offer 
valid through 5/26/15 11:59PM PT.    FACEBOOK  TWITTER  YOUTUBE  INSTAGRAM  PINTEREST  

FROM: "DICK'S Sporting Goods" 
SUBJECT: Last Day! Email Exclusive $20 Off Your Purchase!




        
        
        DICK'S Sporting Goods

		




                








  
    
      
        
          



Plus, Free Shipping on Purchases of $25 or more!** 





              Never miss an email from 
        
      

  
   
	  
	  
	
  
  
   
  
  
   
	  
	   
	   
	  
	
  








  
  

        












              
                



  
   
  
  
   
	  
	   
	   
	   
	   
	   
	   
	  
	
  
  
   
  



                  
                    
                    






