EVERY SEASON STARTS AT DICK'S SPORTING GOODS FREE SHIPPING NO MINIMUM PURCHASE*   TEAM SPORTS EXERCISE FOOTWEAR APPAREL GOLF OUTDOORS FAN SHOP CLEARANCE  2 DAYS ONLY | TAKE $20 OFF YOUR PURCHASE OF $100 OR MORE** | SHOP NOW > | Online only. Excludes PING. Additional exclusions may apply. Offer valid through 11/12/14 11:59 PM PT. St. Jude Children's Research Hospital | THANKS AND GIVING | Text KIDS to 50333 to donate $5. Message and data rates may apply. See website for details. | DONATE NOW >   FACEBOOK  TWITTER  YOUTUBE  INSTAGRAM  PINTEREST  

FROM: "DICK'S Sporting Goods" 
SUBJECT: 2 Days Only! Take $20 Off Your Online Purchase of $100 or more!




        
        
        DICK'S Sporting Goods

		




                








  
    
      
        
          




Free Shipping No Minimum Purchase!*






              Never miss an email from 
        
      


  
   
	  
	  
	
  
  
   
  
  
   
	  
	   
	   
	  
	
  



  



  
  







  
   






              
                



  
   
  
  
   
	  
	   
	   
	   
	   
	   
	   
	  
	
  
  
   
  



                  
                    
                    



