EVERY SEASON STARTS AT DICK'S SPORTING GOODS FREE SHIPPING NO MINIMUM PURCHASE*   TEAM SPORTS EXERCISE FOOTWEAR APPAREL GOLF OUTDOORS FAN SHOP CLEARANCE  LAST DAY | TAKE $10 OFF EVERY $50 YOU SPEND - UP TO $30 IN SAVINGS** | + FREE SHIPPING NO MINIMUM PURCHASE* | SHOP ONLINE NOW > | Online only. Excludes PING. Additional exclusions apply. Offer valid through 10/21/15 11:59 PM PT. See website for details.   FACEBOOK  TWITTER  YOUTUBE  INSTAGRAM  PINTEREST  

FROM: "DICK'S Sporting Goods" 
SUBJECT: Last Day! Take $10 Off Every $50 You Spend Online




        
        
        DICK'S Sporting Goods

		





                








  
    
      
        
          




Free Shipping with No Minimum Purchase* 
  




              Never miss an email from 
        
      

  
   
	  
	  
	
  
  
   
  
  
   
	  
	   
	   
	  
	
  




  
  













              
                



  
   
  
  
   
	  
	   
	   
	   
	   
	   
	   
	  
	
  
  
   
  



                  
                    
                    



