Priority Inbox TigerDirect.com BOGO Tablet & Must-See Deals for Mom.  BOGO Tablet & Must-See Deals for Mom. Deal of the Day! McAfee Text Message RSS twitter facebook

FROM: "TigerDirect.com" 
SUBJECT: 2 Tablets, 1 Price = $69
                

TigerDirect.com | WEM4510 | BOGO Tablet & Must-See Deals for Mom.











  





	
    
      
      Only For Tiger Insiders
        
    



          
            Computers
            TV  Video 
            Computer Parts
           
            Find Store			
            Daily Deal
			
                        Mother's Day Sale  
                         
                      
            
			
            
          
        


      
      
        
          
		
		
		  
      
      
      
      
      

  
    
        
    

  

      
        
        
        
            
              
                
              
            
        
        
        
      
    
 

    
        
    



  



  
  
  $69									 

  
  
  $329									 

  
  
  Wireless USB Mouse								
  FREE*									 Expires 04/27 11:59PM

  
  
  HP 128GBUSB Drive								
  $27									 Expires 04/27 11:59PM



  


  
  
        
        
        
            
  
    
      
  
    
  
  
    

            
              
            
              
              
            
              
              
              
              
              
              
              
            
            
              
              


  
  
    
  
  

      
  

         
        
      

  
    
  
  
    
  
  
    
  



    
  
  
    
  
  
    
  
  
 
  
                    
  
    
  

        
       
 
                 
                

                
                
