TigerDirect.com The Hot List  Click here for amazing price! Click here for amazing price! Click here for amazing price! Click here for amazing price! Click here for amazing price! Click here for amazing price! Click here for amazing price! Click here for amazing price! foot Deal of the Day! twitter facebook

FROM: "TigerDirect.com" 
SUBJECT: SAVE NOW on Today's Top Laptops






	*/




  
    





  
    
    	See the HOT LIST Savings
        View Images
    
  





  
    
    Only For Tiger Insiders
  
  
    
    	
    
  
  
    Shop online or call our experts (800) 800-8300
  





   
    
     Computers
     TV  Video 
     Computer Parts
     Clearance
     Daily Deal
    
   







  
    
    
    
    LAPTOPS
    
    
    Laptops offer the perfect mix of performance, power and portability. Find the laptop that’s right for you, on sale now at TigerDirect.
    
    
    
    





  
    

    


    
      
      
      
      
      
      
      
      
    

    
  
  
    
  







  
    
    	
        
        
	
  





  
    
      Not responsible for typographical, technical, or descriptive errors of products herein. Prices are subject to change. Items may be available online or by phone only, prices and availability in TigerDirect stores may be limited.
      
      
      Call us at (800) 800-8300.
      
      REFERENCE PRIORITY CODE: WEMAR022
	
  





  
    
    	
        

    
  






  
    
      PERMISSION SETTINGS:
      
      Our records indicate we have your permission to send email to the following address:
      
      rikin2344@gmail.com
      
      
      Subscription Center:
      
      If you wish to UNSUBSCRIBE click here or go to: http://www.tigerdirect.com/applications/email/emailmanager.asp
      
      ©2015 TigerDirect, Inc. All Rights Reserved. TigerDirect and TigerDirect.com are registered trademarks of TigerDirect, Inc. All others trademarks and copyrights mentioned herein are the property of their respective owners. TigerDirect, Inc., 7795 West Flagler St., Suite 35, Miami, FL 33144.
	
  





    
  







