Priority Inbox TigerDirect.com Boost the Stats of your Electronics VZQ-102935718 HPR-102875257 DEI-102989681 ME9-103007144 W10-8609 VZI-102908097 FEI-102937825 HPR-102923059 FIC-103009785 HQR-102408685 L23-5015 K88-102569673 J001-11100 QWA-102862593 VSU-103007058M HPR-102821987 FNY-102870279 OCE-102962478 M69-10294 1AS-102870628 LOW-102414035 G125-1326 XTR-6FT4K4PACK U12-42609 OCE-102301926 DOU-102596624 WLA-102595448 L23-0050 X05-1482 MNA-102975003 DD9-101816083 ULR-102408484 Deal of the Day! Summer Clearance PayPal Text Message RSS twitter facebook

FROM: "TigerDirect.com" 
SUBJECT: 50" Smart TV now $349 | i7 8GB HP Desktop $699 | 2TB WD Portable Hard Drive $64
                

TigerDirect.com | WEM4650 | Boost the Stats of your Electronics















  
    
      

     





	
    
      
      Only For Tiger Insiders
        
    



          
            Computers
            TV  Video 
            Computer Parts
           
            Find Store			
            Daily Deal
			
                        Summer Clearance  
                         
			
            
          
        


            
          
        
      
      
        
          
       

























  

	
    
    
	
    
    
    
    
	
    
    
    
    
	
    
    
    
    
    WD My Passport Ultra 2TB Portable Drive
	
    
    


	
    
    
  
    
    
    
    
	
    
    
    
    
  
    
    
    
    
	
    
    
    
    
  
    
    
    
    
	
    
    
    
    
  
    
    
    
    
	
    
    



	
    
    
                    3YR Onsite Warranty
					
					
                            
                       $799.99

                            
                        
                        
                        $699
                        99
                        
                        
							
    
    
    
    
                    w/ Windows 10
					
                            
                       $499.99

                            
                        
                        
                        $449
                        99
                        
                        
							
    
    
    
    Refurbished
                            
                       $379.99

                            
                        
                        
                        $359
                        99
                        
                        
							
    
    
    
    
                    FREE SHIPPING
					
                            
                       $149.99

                            
                        
                        
                        $89
                        99
                        
                        
							
    
    


	
    
    
    
    
    
    Price After Rebate: $399.99*
    
    
    
    
    
    
    
    Price After Rebate: $64.99*
    
    











  

	
    
    
	
    
    
    
    
	
    
    
    
    
    HP Officejet Pro 8610 WiFi e-All-in-One / Duplex
	
    
    
    
    
    Logitech M325 Wireless Mouse
	
    
    


	
    
    
  
    
    
    
    
	
    
    
    
    
  
    
    
    
    
	
    
    
    
    
  
    
    
    
    
	
    
    
    
    
  
    
    
    
    
	
    
    



	
    
    
                            
                       $1379.99

                            
                        
                        
                        $899
                        99
                        
                        
							
    
    
    
    
                    FREE SHIPPING
					
                        
                        
                        $499
                        00
                        
                        
							
    
    
    
    
                    FREE SHIPPING
					
                            
                       $199.99

                            
                        
                        
                        $99
                        99
                        
                        
							
    
    
    
    
                            
                       $29.99

                            
                        
                        
                        $9
                        99
                        
                        
							
    
    


	
    
    
    
    
    
    
    
    
    
    
    
    
    
    
    
    






	
    
    
	
    
    
    
    
    HP Compaq 6005 1TB Pro Desktop
	
    
    
    
    
    Swann 8 Channel 4 Camera Surveillance 1TB System
	
    
    
    
    
	
    
    


	
    
    
  
    
    
    
    
	
    
    
    
    
  
    
    
    
    
	
    
    
    
    
  
    
    
    
    
	
    
    
    
    
  
    
    
    
    
	
    
    



	
    
    
                            
                       $219.99

                            
                        
                        
                        $169
                        99
                        
                        
							
    
    
    
    Off-Lease
                            
                       $279.99

                            
                        
                        
                        $134
                        99
                        
                        
							
    
    
    
    
                    Weather Resistant Cameras
					
                            
                       $449.99

                            
                        
                        
                        $319
                        
                        
							
    
    
    
    
                    FREE SHIPPING
					
                            
                       $179.99

                            
                        
                        
                        $129
                        99
                        
                        
							
    
    


	
    
    Price After Rebate: $149.99*
    
    
    
    
    
    
    
       
             
              
      			$20 OFF
      			 CAS160561 
              
            
      		Ends 
                          9/29 11:59 PM ET
                          
                         
                       
        
    
    
    
    Price After Rebate: $69.99*
    
    











  

	
    
    
    PNY GeForce GTX 980 4GB 256-Bit GDDR4 Video Card
	
    
    
    
    
	
    
    
    
    
	
    
    
    
    
	
    
    


	
    
    
  
    
    
    
    
	
    
    
    
    
  
    
    
    
    
	
    
    
    
    
  
    
    
    
    
	
    
    
    
    
  
    
    
    
    
	
    
    



	
    
    
                    FREE SHIPPING
					
                            
                       $539.99

                            
                        
                        
                        $459
                        99
                        
                        
							
    
    
    
    
                            
                       $449.99

                            
                        
                        
                        $399
                        99
                        
                        
							
    
    
    
    
                    FREE SHIPPING
					
                            
                       $399.99

                            
                        
                        
                        $379
                        99
                        
                        
							
    
    
    
    Refurbished
                            
                       $299.99

                            
                        
                        
                        $289
                        99
                        
                        
							
    
    


	
    
    Price After Rebate: $419.99*
    
    
    
    
    
    
    
    
    
    
    
    
    
    








  

	
    
    
    Lowepro Format Backpack 150 Camera Pack
	
    
    
    
    
    Gear Head Wireless Speaker - Aluminum Body
	
    
    
    
    
    Xtreme 6 Feet High Speed 4K HDMI Cable
	
    
    
    
    
    ULTRA 1.6 ft. CAT6 Stranded Patch Network Cable
	
    
    


	
    
    
  
    
    
    
    
	
    
    
    
    
  
    
    
    
    
	
    
    
    
    
  
    
    
    
    
	
    
    
    
    
  
    
    
    
    
	
    
    



	
    
    
                            
                       $49.99

                            
                        
                        
                        $39
                        99
                        
                        
							
    
    
    
    
                    Rechargeable Battery
					
                    Available in: 
					
                            
                       $29.99

                            
                        
                        
                        $9
                        99
                        
                        
							
    
    
    
    
                            
                       $29.99

                            
                        
                        
                        $7
                        99
                        
                        
							
    
    
    
    
                            
                       $9.99

                            
                        
                        
                        $5
                        99
                        
                        
							
    
    


	
    
    Price After Rebate: FREE*
    
    
    
    
    
    
    
    
    
    
    
    Price After Rebate: FREE*
    
    








  

	
    
    
	
    
    
    
    
	
    
    
    
    
	
    
    
    
    
    Logitech Z313 Computer Speaker System
	
    
    


	
    
    
  
    
    
    
    
	
    
    
    
    
  
    
    
    
    
	
    
    
    
    
  
    
    
    
    
	
    
    
    
    
  
    
    
    
    
	
    
    



	
    
    
                            
                       $179.99

                            
                        
                        
                        $129
                        99
                        
                        
							
    
    
    
    
                        
                        
                        $89
                        99
                        
                        
							
    
    
    
    
                            
                       $115

                            
                        
                        
                        $89
                        99
                        
                        
							
    
    
    
    
                            
                       $49.99

                            
                        
                        
                        $29
                        99
                        
                        
							
    
    


	
    
    
    
    
    
    
    
    
    
    
    
    
    
    
    
    






	
    
    
    Xerox DocuMate 31250 Sheetfed Document Scanner
	
    
    
    
    
	
    
    
    
    
	
    
    
    
    
    Ultra 1000 Watt X4 Special Edition Mod ATX PSU
	
    
    


	
    
    
  
    
    
    
    
	
    
    
    
    
  
    
    
    
    
	
    
    
    
    
  
    
    
    
    
	
    
    
    
    
  
    
    
    
    
	
    
    



	
    
    
                    FREE SHIPPING
					
                            
                       $494.99

                            
                        
                        
                        $259
                        99
                        
                        
							
    
    
    
    
                            
                       $307.5

                            
                        
                        
                        $149
                        99
                        
                        
							
    
    
    
    
                            
                       $199.99

                            
                        
                        
                        $144
                        99
                        
                        
							
    
    
    
    
                    FREE SHIPPING
					
                            
                       $199.99

                            
                        
                        
                        $109
                        
                        
							
    
    


	
    
    
    
    
    
    
    
    
    
    
    
    
    
    Price After Rebate  Coupon: $59.99*
       
             
              
      			$20 OFF
      			 PEA160912 
              
            
      		Ends 
                          9/20 11:59 PM ET
                          
                         
                       
        
    
    







    

         
         
        
      
  
    
  
  
    
  
  
    
  
      
  


     


                             
            
                  
  
     
  
    
    
  
 
  
                    
  
  
    
  





      
        
       
 
                 
                

                
                
