Priority Inbox TigerDirect.com Friday Funday  Friday Funday   Deal of the Day! Microsoft Surface Text Message RSS twitter facebook

FROM: "TigerDirect.com" 
SUBJECT: Get It While You Can: $199 ASUS 2-in-1 Laptop, See Them All
                

TigerDirect.com | WEM4565 | Friday Funday

















	
    
      
      Only For Tiger Insiders
        
    



          
            Computers
            TV  Video 
            Computer Parts
           
            Find Store			
            Daily Deal
			
                        Summer Clearance  
                         
                      
            
			
            
          
        


      
      
        
          
		
		
		  
      
      
      
      
      

  
    
        
    

  

      
        
        
        
            
              
                
              
            
        
        
        
      
    
 

    
        
    



  



  
  
  2-in-1 Transformer Laptop
  $199 

  
  
  $549 

  
  
  1TB PortableExt HD
  $52 Exclusive Price

  
  
  $699 

  


  
  
        
        
        
            
  
    
      
  
    
  
    
    




    
        
            
            
              
               
                
                
                
              
          
        
    


  
    
  





    
    
    
    
    
  
  
    
  
  

      
  

         
        
      

  
    
  
  
    
  
  
    
  
  
      
                  
                  
                  
  
    
  
  
    
  
  
 
  
                    
  
    
  

        
       
 
                 
                

                
                
