Priority Inbox TigerDirect.com See Top of the Line & Affordability Here  See Top of the Line & Affordability Here Deal of the Day! Microsoft Surface Text Message RSS twitter facebook

FROM: "TigerDirect.com" 
SUBJECT: 240GB SSD $69 | 4TB External Hard Drive $109 | ASUS i7 16GB Gaming Laptop $1299
                

TigerDirect.com | WEM4569 | See Top of the Line & Affordability Here


















	
    
      
      Only For Tiger Insiders
        
    



          
            Computers
            TV  Video 
            Computer Parts
           
            Find Store			
            Daily Deal
			
                        Summer Clearance  
                         
                      
            
			
            
          
        


      
      
        
          
		
		
		  
      
      
      
      
      

  
    
        
    

  

      
        
        
        
            
              
                
              
            
        
        
        
      
    
 

    
        
    



  



  
  
  240GB InternalSolid State Drive
  $69* Expires 6/25

  
  
  4TBExternal HD
  $109 

  
  
  ASUS i7Gaming Laptop
  $1299 

  
  
  GeForceGTX 750
  $119* 

  


  
  
        
        
        
            
  
    
      
  
    
  
    
    




    
    
    
    
    
  
  
    
  
  

      
  

         
        
      

  
    
  
  
    
  
  
    
  
  
      
                  
                  
                  
  
    
  
  
    
  
  
 
  
                    
  
    
  

        
       
 
                 
                

                
                
