EVERY SEASON STARTS AT DICK'S SPORTING GOODS FREE SHIPPING + FREE RETURNS ON APPAREL*   TEAM SPORTS EXERCISE FOOTWEAR APPAREL GOLF OUTDOORS FAN SHOP CLEARANCE  DUKE RULES AGAIN | CELEBRATE THEIR 5TH NATIONAL TITLE WITH OFFICAL NET-CUTTING GEAR SHOP NOW>>   FACEBOOK  TWITTER  YOUTUBE  INSTAGRAM  PINTEREST  

FROM: "DICK'S Sporting Goods" 
SUBJECT: Congratulations Duke! Get Your Championship Gear Now!




        
        
        DICK'S Sporting Goods

		




                








  
    
      
        
          





Free Shipping + Free Returns on Apparel!* 
 





              Never miss an email from 
        
      

  
   
	  
	  
	
  
  
   
  
  
   
	  
	   
	   
	  
	
  






      
	  

      
	  




















              
                



  
   
  
  
   
	  
	   
	   
	   
	   
	   
	   
	  
	
  
  
   
  



                  
                    
                    



