EVERY SEASON STARTS AT DICK'S SPORTING GOODS FREE SHIPPING ON PURCHASES OF $25 OR MORE*   TEAM SPORTS EXERCISE FOOTWEAR APPAREL GOLF OUTDOORS FAN SHOP CLEARANCE  FLASH SALE | 12 HOURS ONLY | SAVE UP TO 50% OFF SELECT ITEMS | Online only. Limited time offer. Valid from 10AM - 10PM ET today only. While supplies last. Check DICKS.com every Thursday for our latest Flash Sale deals. | SHOP NOW > TAKE AN EXTRA 25% OFF SELECT MEN'S, WOMEN'S & YOUTH ATHLETIC APPAREL | ORIG. 16.99-124.99 | SHOP NOW > TAKE AN EXTRA 50% OFF ALREADY CLEARANCED BIKES | ORIG. 199.99-1749.99 | SHOP NOW > $59.98 THE NORTH FACE OSITO AND OSITO 2 | ORIG. 99.00 | SHOP NOW > 40% OFF SELECT MLB® HOODIES | ORIG. 75.00 | SHOP NOW >   FACEBOOK  TWITTER  YOUTUBE  INSTAGRAM  PINTEREST  

FROM: "DICK'S Sporting Goods" 
SUBJECT: Flash Sale – 12 Hours Only! 




        
        
        DICK'S Sporting Goods

		




                








  
    
      
        
          





Save Up to 50% Off Now! 
 





              Never miss an email from 
        
      

  
   
	  
	  
	
  
  
   
  
  
   
	  
	   
	   
	  
	
  








  
  
  
  
  
  
  
  
  
  

        

















              
                



  
   
  
  
   
	  
	   
	   
	   
	   
	   
	   
	  
	
  
  
   
  



                  
                    
                    





