EVERY SEASON STARTS AT DICK'S SPORTING GOODS FREE SHIPPING ON PURCHASES OF $49 OR MORE*   TEAM SPORTS EXERCISE FOOTWEAR APPAREL GOLF OUTDOORS FAN SHOP CLEARANCE  FLASH SALE | 12 HOURS ONLY | SAVE UP TO 50% OFF SELECT ITEMS | Online Only. Limited Time Offer. Valid From 10 AM - 10 PM EST Today Only. While Supplies Last. Check DICKS.COM every Thursday for our latest Flash Sale deals. | SHOP NOW > TAKE AN EXTRA 25% OFF SELECT MEN'S & WOMEN'S ATHLETIC APPAREL | ORIG. 24.99-99.99 | SHOP NOW > 60% OFF ELECTRONIC DARTBOARDS | ORIG. 19.99-29.99 | SHOP NOW > TAKE AN EXTRA 20% OFF SELECT CLEARANCE LACROSSE GEAR | SHOP NOW >   FACEBOOK  TWITTER  YOUTUBE  INSTAGRAM  PINTEREST  

FROM: "DICK'S Sporting Goods" 
SUBJECT: Tick. Tock. It’s Flash Sale Time! 




        
        
        DICK'S Sporting Goods

		




                








  
    
      
        
          






 12 Hours Only. 10AM-10PM. While Supplies Last! 





              Never miss an email from 
        
      

  
   
	  
	  
	
  
  
   
  
  
   
	  
	   
	   
	  
	
  








  
  
  
  
  
  
  
  

        



















              
                



  
   
  
  
   
	  
	   
	   
	   
	   
	   
	   
	  
	
  
  
   
  



                  
                    
                    





