EVERY SEASON STARTS AT DICK'S SPORTING GOODS FREE SHIPPING NO MINIMUM PURCHASE*   TEAM SPORTS EXERCISE FOOTWEAR APPAREL GOLF OUTDOORS FAN SHOP CLEARANCE  TAKE $20 OFF YOUR PURCHASE OF $100 OR MORE** | IN-STORE &amp; ONLINE | In-store and online. Excludes PING. Additional exclusions may apply. See website for details. Offer valid 12/12/14 through 12/15/14 11:59PM PT. SHOP NOW PRINT COUPON 12 DAYS OF DEALS | CHECK OUT TODAY'S GREAT SAVINGS! | IN-STORE AND ONLINE | SHOP NOW >   FACEBOOK  TWITTER  YOUTUBE  INSTAGRAM  PINTEREST  

FROM: "DICK'S Sporting Goods" 
SUBJECT: Take $20 Off In-Store and Online!  This Weekend Only!




        
        
        DICK'S Sporting Goods

		




                








  
    
      
        
          



Plus, 12 Days of Deals Continue!
 





              Never miss an email from 
        
      




  
   
	  
	  
	
  
  
   
  
  
   
	  
	   
	   
	  
	
  










  
  
  
   
	  
	  
	
  


  
  


        












              
                



  
   
  
  
   
	  
	   
	   
	   
	   
	   
	   
	  
	
  
  
   
  



                  
                    
                    


