EVERY SEASON STARTS AT DICK'S SPORTING GOODS FREE SHIPPING ON PURCHASES OF $25 OR MORE*   TEAM SPORTS EXERCISE FOOTWEAR APPAREL GOLF OUTDOORS FAN SHOP CLEARANCE  FLASH SALE | 12 HOURS ONLY! | SAVE UP TO 50% OFF SELECT ITEMS | SHOP NOW > | Online only. Limited time offer. Valid from 10 AM-10 PM ET today only. While supplies last. Check DICKS.com every Thursday for our latest Flash Sale deals. TAKE AN EXTRA 25% OFF SELECT MEN'S, WOMEN'S & YOUTH ATHLETIC APPAREL | Orig. 19.99-130.00 | SHOP NOW > $99.99 DAVID YURMAN SUNGLASSES | Orig. 295.00-775.00 | SHOP NOW > TAKE AN EXTRA 30% OFF SELECT QUEST LAWN GAMES | Orig. 12.99-129.99 | SHOP NOW > 50% OFF BUSHNELL BONE COLLECTOR LASER RANGEFINDER COMBO | Orig. 299.98 | SHOP NOW >   FACEBOOK  TWITTER  YOUTUBE  INSTAGRAM  PINTEREST  

FROM: "DICK'S Sporting Goods" 
SUBJECT: ✸ FLASH SALE ✸
MESSAGE: 




        
        
        DICK'S Sporting Goods

		




                








  
    
      
        
          




12 Hours Only. Save up to 50% Off Select Items! 
 





              Never miss an email from 
        
      

  
   
	  
	  
	
  
  
   
  
  
   
	  
	   
	   
	  
	
  







  
   
  
  
  
  
  
  
  
  
  
  
  

        


















              
                



  
   
  
  
   
	  
	   
	   
	   
	   
	   
	   
	  
	
  
  
   
  



                  
                    
                    





