EVERY SEASON STARTS AT DICK'S SPORTING GOODS FREE SHIPPING NO MINIMUM PURCHASE*   TEAM SPORTS EXERCISE FOOTWEAR APPAREL GOLF OUTDOORS FAN SHOP CLEARANCE  12 DAYS OF DEALS | 25% OFF SELECT UNDER ARMOUR COLDGEAR STYLES & MORE | SHOP ALL DEALS >   FACEBOOK  TWITTER  YOUTUBE  INSTAGRAM  PINTEREST  

FROM: "DICK'S Sporting Goods" 
SUBJECT: Today's Deal: 25% Off Select Under Armour Coldgear Styles!




        
        
        DICK'S Sporting Goods

		




                








  
    
      
        
          



Free Shipping No Minimum Purchase* 
 





              Never miss an email from 
        
      


  
   
	  
	  
	
  
  
   
  
  
   
	  
	   
	   
	  
	
  









  
  



        


















              
                



  
   
  
  
   
	  
	   
	   
	   
	   
	   
	   
	  
	
  
  
   
  



                  
                    
                    




