Priority Inbox TigerDirect.com Tiger Deals for Free** Shipping VZI-102962154 LQW-102124082 H24-2472 HEW-102773028 OCZ-102558187 HPR-102912704 GRU-102839219 VZI-102953958 OCE-102989352 RSC-102598687 SGI-102911080 KOH-102806061 S33-102894824 EW9-102844915 VI4-102932553 SMD-102411239 Microsoft Windows 8.1 64bit<br>with McAfee Multi-Access C477-G1411 FEI-102333559 S205-2709 ESN-102777523 WED-102557123 KNY-102862331 ULR-102408485 U12-42152 Snap Secure 200GB 1 User 10 Devices <br>w/ McAfee Multi-Access QTM-102836370 NIH-101752175 C910-9902 FNY-102826169 Deal of the Day! Text Message RSS twitter facebook

FROM: "TigerDirect.com" 
SUBJECT: Approved for Free Shipping… 49” 4K Smart TV $699, Core i7 Pro Laptop $729
                

TigerDirect.com | WEM4590 | Tiger Deals for Free** Shipping















  
    
      

     





	
    
      
      Only For Tiger Insiders
        
    



          
            Computers
            TV  Video 
            Computer Parts
           
            Find Store			
            Daily Deal
			
                        Summer Clearance  
                         
                      
            
			
            
          
        


            
          
        
      
      
        
          
       


























  

	
    
    
	
    
    
    
    
	
    
    
    
    
	
    
    
    
    
	
    
    


	
    
    
  
    
    
    
    
	
    
    
    
    
  
    
    
    
    
	
    
    
    
    
  
    
    
    
    
	
    
    
    
    
  
    
    
    
    
	
    
    



	
    
    
                    FREE SHIPPING
					
                            
                       $949.99

                            
                        
                        
                        $679
                        99
                        
                        
							
    
    
    
    
                    FREE SHIPPING
					
                            
                       $599.99

                            
                        
                        
                        $499
                        99
                        
                        
							
    
    
    
    
                    FREE SHIPPING
					
                            
                       $199.99

                            
                        
                        
                        $139
                        99
                        
                        
							
    
    
    
    
                    Expires 11:59 pm 7/11
					
                    FREE SHIPPING
					
                            
                       $119.99

                            
                        
                        
                        $89
                        99
                        
                        
							
    
    


	
    
    
    
    
    
    
    
    
    
    
    
    
    
    Price After Rebate: $69.99*
    
    












  

	
    
    
	
    
    
    
    
	
    
    
    
    
    MSI GeForce GTX 970 Video Card 
	
    
    
    
    
    Seagate 3TB Expansion Desktop Hard Drive
	
    
    


	
    
    
  
    
    
    
    
	
    
    
    
    
  
    
    
    
    
	
    
    
    
    
  
    
    
    
    
	
    
    
    
    
  
    
    
    
    
	
    
    



	
    
    
                    FREE SHIPPING
					
                            
                       $899.99

                            
                        
                        
                        $649
                        
                        
							
    
    
    
    
                    FREE SHIPPING
					
                            
                       $499.99

                            
                        
                        
                        $399
                        99
                        
                        
							
    
    
    
    
                    FREE SHIPPING
					
                            
                       $369.99

                            
                        
                        
                        $349
                        99
                        
                        
							
    
    
    
    
                    Expires 11:59 PM 7/11
					
                    You must click from the email for Exclusive PriceFREE SHIPPING
					
                            
                       $129.99

                            
                        
                        
                        $89
                        99
                        
                        
							
    
    


	
    
       
             
              
      			$150 OFF
      			 NSJ158437 
              
            
      		Ends 
                          7/12 11:59 PM ET
                          
                         
                       
        
    
    
    
    
    
    
    
    Price After Rebate: $339.99*
    
    
    
    Price After Rebate: $79.99*
    
    












  

	
    
    
	
    
    
    
    
	
    
    
    
    
	
    
    
    
    
    Samsung PRO 64GB MicroSDHC Flash Memory Card
	
    
    


	
    
    
  
    
    
    
    
	
    
    
    
    
  
    
    
    
    
	
    
    
    
    
  
    
    
    
    
	
    
    
    
    
  
    
    
    
    
	
    
    



	
    
    
                    FREE SHIPPING
					
                        
                        
                        $229
                        99
                        
                        
							
    
    
    
    
                    Expires 11:59 PM 7/11
					
                    FREE SHIPPING
					Refurbished
                        
                        
                        $179
                        99
                        
                        
							
    
    
    
    
                    FREE SHIPPING
					
                            
                       $169.99

                            
                        
                        
                        $149
                        99
                        
                        
							
    
    
    
    
                    Expires 11:59 PM 7/11FREE SHIPPING
					
                            
                       $59.99

                            
                        
                        
                        $49
                        99
                        
                        
							
    
    


	
    
    
    
    
    
    Price After Rebate: $149.99*
    
    
    
    
    
    
    
    
    
    








  
    
      
    
  
  
      
      
      
      
      Microsoft Windows 8.1 64bitwith McAfee Multi-Access
      
      
      
        
        
        
     Save $130 
     $199.99
       
        
       $69.99*
             After $60 MIR
        
        
        FREE SHIPPING
        
        
        
      
      
      
      




  

	
    
    
    CyberPowerPC AMD Quad Core Gaming PC
	
    
    
    
    
	
    
    
    
    
	
    
    
    
    
    Philips CSS2133B Sound Bar Speaker
	
    
    


	
    
    
  
    
    
    
    
	
    
    
    
    
  
    
    
    
    
	
    
    
    
    
  
    
    
    
    
	
    
    
    
    
  
    
    
    
    
	
    
    



	
    
    
                    1GB NVIDIA GeForce GT 720
					
                    Expires 11:59 PM 7/11FREE SHIPPING
					
                            
                       $599.99

                            
                        
                        
                        $479
                        99
                        
                        
							
    
    
    
    
                    FREE SHIPPING
					
                            
                       $389.95

                            
                        
                        
                        $249
                        99
                        
                        
							
    
    
    
    
                    FREE SHIPPING
					
                            
                       $279.99

                            
                        
                        
                        $219
                        99
                        
                        
							
    
    
    
    
                    FREE SHIPPING
					Refurbished
                            
                       $99.99

                            
                        
                        
                        $49
                        99
                        
                        
							
    
    


	
    
    
    
    
    
    Price After Rebate: $199.99*
    
    
    
    
    
    
    
    
    
    








  

	
    
    
	
    
    
    
    
    PNY ATTACHE 32GB USB 2.0 Flash Drive
	
    
    
    
    
    Ultra 750 Watt X4 Special Edition Mod ATX PSU
	
    
    
    
    
    Ultra Rogue M925 Full Tower Gaming Case
	
    
    


	
    
    
  
    
    
    
    
	
    
    
    
    
  
    
    
    
    
	
    
    
    
    
  
    
    
    
    
	
    
    
    
    
  
    
    
    
    
	
    
    



	
    
    
                    FREE SHIPPING
					
                            
                       $309.99

                            
                        
                        
                        $249
                        99
                        
                        
							
    
    
    
    
                    Expires 11:59 PM 7/10FREE SHIPPING
					
                            
                       $10.99

                            
                        
                        
                        $14
                        99
                        
                        
							
    
    
    
    
                    FREE SHIPPING
					
                            
                       $149.99

                            
                        
                        
                        $79
                        99
                        
                        
							
    
    
    
    
                    FREE SHIPPING
					
                            
                       $129.99

                            
                        
                        
                        $79
                        99
                        
                        
							
    
    


	
    
    
    
    
    
    Price After Rebate: $6.99*
    
    
    
    Price After Rebate: $49.99*
    
    
    
    Price After Rebate: $49.99*
    
    









  
      
      
      
      Snap Secure 200GB 1 User 10 Devices w/ McAfee Multi-Access
      
      
        
        
        
     Save $175 
     $174.99
     $59.99
       
        
        FREE*
        *After $60 MIR
        
        
        FREE SHIPPING

        
        
        
      
    
      





  

	
    
    
    AEE 1080P Camera Toruk AP10 Drone
	
    
    
    
    
    Night Owl CIF 16Ch 8 Cam 480TVL 500GB Security Kit
	
    
    
    
    
    CyberPower 1000VA Sinewave Series UPS CP1000PFCL
	
    
    
    
    
    PNY DDR3L 8 GB SO DIMM 204-pin
	
    
    


	
    
    
  
    
    
    
    
	
    
    
    
    
  
    
    
    
    
	
    
    
    
    
  
    
    
    
    
	
    
    
    
    
  
    
    
    
    
	
    
    



	
    
    
                    Max Flight Speed 25 m/sCruise Control
					
                    FREE SHIPPING
					
                            
                       $899

                            
                        
                        
                        $649
                        99
                        
                        
							
    
    
    
    
                    Expires 11:59 PM 7/11
					
                    FREE SHIPPING
					
                            
                       $599.99

                            
                        
                        
                        $299
                        99
                        
                        
							
    
    
    
    
                    FREE SHIPPING
					
                            
                       $169.95

                            
                        
                        
                        $119
                        99
                        
                        
							
    
    
    
    
                    FREE SHIPPING
					
                            
                       $101.99

                            
                        
                        
                        $49
                        99
                        
                        
							
    
    


	
    
    
    
    
    
    Price After Rebate: $279.99*
    
    
    
    
    
    
    
    
    
    









    

         
         
        
      
  
    
  
  
    
  
  
    
  
                  
  
     
  
  
    
  
 
   
                    
  
    
  

      
        
       
 
                 
                

                
                
