EVERY SEASON STARTS AT DICK'S SPORTING GOODS FREE SHIPPING ON PURCHASES OF $49 OR MORE*   TEAM SPORTS EXERCISE FOOTWEAR APPAREL GOLF OUTDOORS FAN SHOP CLEARANCE  FLASH SALE | 12 HOURS ONLY | SAVE UP TO 50% OFF SELECT ITEMS | Online only. Limited time offer. Valid from 10AM - 10PM ET today only. While supplies last. Check DICKS.com every Thursday for our latest flash sale deals. | SHOP NOW > TAKE AN EXTRA 25% OFF SELECT MEN'S & WOMEN'S ATHLETIC APPAREL | ORIG. 20.00-200.00 | SHOP NOW > 25% OFF EASTON S500 YOUTH BAT | REG. 79.99 | SHOP NOW > TAKE AN EXTRA 25% OFF ALREADY REDUCED BIKES | SHOP NOW >   FACEBOOK  TWITTER  YOUTUBE  INSTAGRAM  PINTEREST  

FROM: "DICK'S Sporting Goods" 
SUBJECT: Your luck hasn’t run out yet – It’s a Flash Sale! 




        
        
        DICK'S Sporting Goods

		




                








  
    
      
        
          





Save Up to 50% Off Select Items from 10AM-10PM
 





              Never miss an email from 
        
      

  
   
	  
	  
	
  
  
   
  
  
   
	  
	   
	   
	  
	
  








  
  
  
  
  
  
  
  

        
















              
                



  
   
  
  
   
	  
	   
	   
	   
	   
	   
	   
	  
	
  
  
   
  



                  
                    
                    





