Priority Inbox TigerDirect.com Broaden your horizons without cramping your style HEW-102773028 HPR-102875257 Shop Now HPR-102598682 Shop Now HQR-102599072 Shop Now VSU-102874494 HPR-102535277 HPR-102821987 <b>Don’t forget</b> Microsoft <br> Office Home &amp; Business 2013 Product Key KCE-102834407 WZP-102588308 OCE-102524135 VIB-102687427 S153-3334  Computers PC Parts TV Cell Phones Deal of the Day! Tiger March Mania Tournament Up to $150 off Surface Pro 3 Tiger March Mania Tournament RSS twitter facebook

FROM: "TigerDirect.com" 
SUBJECT: $59 HP WiFi Officejet Printer | 64GB USB $19 | 49” 4K LED TV $399

TigerDirect.com | WEBBP2459 | Broaden your horizons without cramping your style






 
  




  
  
    
      
              
                 
                  





	
    
      
      Only For Tiger Insiders
        
    



          
            Computers
            TV  Video 
            Computer Parts
           
            Find Store			
            Daily Deal
			
                        Mother's Day Sale  
                         
                      
            
			
            
          
        


                
                 
                  
                  
					  
					    
					        
					          
                              
                              





            
 











	
    
    
    
    
    
    
    
    


	
    
    

					
					
          
	
    
    
    
    

					
					HP AMD Quad Core 8GB DDR3 Pro Desktop
					
          
	
    
    



	
    
    

      
				
					
            
            
            
					
						
				
					
          
          
          
          
          FREE SHIPPING
          
          Item# HPR-102875257
 
					
          
            
 							$749.99Save $50
              
              
              $699
              99
              
              
              
           
            
            
            
            
          
				
			
 


    
    
    
    

      
				
					
            
            
            
					
						
				
					
          
          
          
          
          FREE SHIPPING
          AMD A8-6410 2.00GHz, 8GB DDR3 Memory, 1TB Hard Drive, DVD Burner, Windows 7/8.1 Pro 64-bit
          
          Item# HPR-102598682
 
					
          
            
 							$569.99Save $170
              
              
              $399
              99
              
              
              
           
            
            
            
            
          
				
			
 


    
    


	
    
    
    
    
    
    
    
    






	
    
    
    
    


	
    
    
  
       
				
					
            
            
            
					
          
          
              
              FREE SHIPPING
              
              
					
					
          HP Officejet Pro 6230 WiFi e-Printer with Duplex
					
          
              
              
              HP Officejet Pro 6230 Wireless Color Inkjet e-Printer, Auto-Duplex(2-sided print), 600 x 1200 dpi, 18ppm Black, 10ppm color, 225 Sheet Tray, Mobile Printing, ePrint, AirPrint
              


              
          
            
 							$99.99Save $40
              
              
              $59
              99
              
              
              
           
            
            
				
			
 
  
    
    



	
    
    
    
    


	
    
    
    
    






	
    
    
	
    
    
    
    
	
    
    
    
    
	
    
    


	
    
    
  
    
    
    

	
    
    
    
    
  
    
    
    

	
    
    
    
    
  
    
    
    

	
    
    



	
    
    
            
            
                    
                    
                    
                        
                        
                        $699
                        99
                        
                        
                    
                    
                    
                    
			
    
    
    
    
                            
                       $749.99

                            
            
            
                    
                    
                    
                        
                        
                        $549
                        99
                        
                        
                    
                    
                    
                    
			
    
    
    
    
                    FREE SHIPPING
					
                            
                       $604

                            
            
            
                    
                    
                    
                        
                        
                        $349
                        99
                        
                        
                    
                    
                    
                    
			
    
    


	
    
    
    
    
    
    
    
    
    
    
    
    








  
    
      
    
  
  
      
      
      
      
      Don’t forget Microsoft  Office Home  Business 2013 Product Key
      
      
        
        
        
     FREE SHIPPING
       
        
       $219.99
        
        
        
        
        
      
      
      











	
    
    
	
    
    
    
    
	
    
    
    
    
    Visioneer RoadWarrior 3 Lite Portable Scanner
	
    
    
    
    
    SanDisk Cruzer 64GB USB Flash Drive 
	
    
    


	
    
    
  
    
    
    
    
	
    
    
    
    
  
    
    
    
    
	
    
    
    
    
  
    
    
    
    
	
    
    
    
    
  
    
    
    
    
	
    
    



	
    
    
                    FREE SHIPPING
					
                            
                       $199.99

                            
                        
                        
                        $129
                        99
                        
                        
							
    
    
    
    
                    FREE SHIPPING
					
                            
                       $109.99

                            
                        
                        
                        $89
                        99
                        
                        
							
    
    
    
    
                    FREE SHIPPING
					
                            
                       $129.99

                            
                        
                        
                        $49
                        99
                        
                        
							
    
    
    
    
                    Expires 4/24 11:59PM ET
					
                            
                       $54.99

                            
                        
                        
                        $19
                        99
                        
                        
							
    
    


	
    
    Price After Rebate: $99.99*
    
    
    
    
    
    
    
    
    
    
    
    
    
    







                    
                      
 
                 
                
                
                 
				            
				        
				      
			      

                   
                  
                
                 
                              
                
                
 
 
 
 
 
                
                
                
                
                  
                      
                        
                          
                            
                            
                          
                        
                      
                      
                        
                      
                      
                        
                        
                        
                        
                        
                        
                        
                      
                  
                
                  
 
                        
                      

                                
                                
                                
                                  
                                
                          
                          
                                
                                
  
    
    
    
    
  



	



	  
	 
     	
                      
                      
                      
                  
                      
                  
                  
                  
	
  

                      
                      
                  
                  
                      
               
                
                
                  
                  
                      
  
    
  
  
    
    
  
  
    
    
  

                
             
                  
                
                
         
         
     
                
                
                  
                
                
