Priority Inbox TigerDirect.com Beat the Monday Morning Blues w/ these deals  Beat the Monday Morning Blues w/ these deals   Deal of the Day! Summer Clearance Text Message RSS twitter facebook

FROM: "TigerDirect.com" 
SUBJECT: 58" 120Hz LED TV $399 | Lenovo i3 PRO Laptop $399 | 960GB SSD $319
                

TigerDirect.com | WEM4649 | Beat the Monday Morning Blues w/ these deals











  
  
    
      









	
    
      
      Only For Tiger Insiders
        
    



          
            Computers
            TV  Video 
            Computer Parts
           
            Find Store			
            Daily Deal
			
                        Summer Clearance  
                         
			
            
          
        


      
      
        
          
		

        
		  
      
      
      
      
      




  
    
        
    

  

      
        
        
        
            
              
                
              
            
        
        
        
      
    
 

    
        
    





  



  
  
  $399* 

  
  
  $399* 

  
  
  SanDisk960GB UltraInternal SSD
  $319 

  
  
  CanonAll-in-OnePrinter
  $29 

  


  
  
        
        
        
            
  
    
      
  
    
  
    
    




    
        
            
            
              
               
                
                
                
              
          
        
    


  
    
  





    
    
    
    
    
  
  
    
  
  

      
  

         
        
      

  
    
  
  
    
  
  
    
  
    
  

 
                  
  
    
  
  
    

  
    
                    


        
       
 
                 
                

                
                
