Priority Inbox TigerDirect.com Week's End Deals HEW-102773028 A208-1402 BNO-102348039 HPR-102875257 UAM-102897264 LEO-102863814 HPR-102535277 VSU-102776228 LCU-102846980 LCU-102411221 P56-9960 GGG-102303618 VI4-102932554 VZI-102973657 VSU-102776234 RSC-102410972 AIS-102948630 WED-102408294 L49-8028M Shop Now KNY-101814517K Shop Now <b>Don’t forget</b> Microsoft Windows 7 Home Premium OS + McAfee 2015 Multi-Access Anti-Virus NIH-102847283 KMS-102109438 UIU-102519702 KCE-102777662  Computers PC Parts TV Cell Phones Deal of the Day! SMS RSS twitter facebook

FROM: "TigerDirect.com" 
SUBJECT: ✳Price Alert: $129 New 24” HP LED Monitor | $199 Lenovo Laptop | $14 32GB USB MicroSDHC

TigerDirect.com | WEBBP2500 | Week's End Deals






 
  




  
  
    
      
              
                 
                  





	
    
      
      Only For Tiger Insiders
        
    



          
            Computers
            TV  Video 
            Computer Parts
           
            Find Store			
            Daily Deal
			
                        Graduation Gift Guide  
                         
                      
            
			
            
          
        


                
                 
                  
                  
					  
					    
					        
					          
                              
                              




       

















  

	
    
    
    ADATA 16GB Retractable USB Flash Drive
	
    
    
    
    
	
    
    
    
    
	
    
    
    
    
	
    
    


	
    
    
  
    
    
    
    
	
    
    
    
    
  
    
    
    
    
	
    
    
    
    
  
    
    
    
    
	
    
    
    
    
  
    
    
    
    
	
    
    



	
    
    
                    Expires 5/23
					
                    $0.99 shipping
					
                            
                       $6.99

                            
                        
                        
                        $5
                        99
                        
                        
							
    
    
    
    
                    FREE SHIPPING
					
                            
                       $279.99

                            
                        
                        
                        $189
                        99
                        
                        
							
    
    
    
    
                            
                       $749.99

                            
                        
                        
                        $729
                        99
                        
                        
							
    
    
    
    
                    FREE SHIPPING
					
                            
                       $1799.99

                            
                        
                        
                        $1,097
                        99
                        
                        
							
    
    


	
    
    
    
    
    
    
    
    
    
    
    
    
    
    Price After Rebate: $997.99*
    
    















  

	
    
    
	
    
    
    
    
	
    
    
    
    
	
    
    


	
    
    
  
    
    
    

	
    
    
    
    
  
    
    
    

	
    
    
    
    
  
    
    
    

	
    
    



	
    
    
                    FREE SHIPPING
					
                            
                       $329.99

                            
            
            
                    
                    
                    
                        
                        
                        $199
                        99
                        
                        
                    
                    
                    
                    
			
    
    
    
    
                            
                       $479.99

                            
            
            
                    
                    
                    
                        
                        
                        $329
                        99
                        
                        
                    
                    
                    
                    
			
    
    
    
    
                            
                       $1249.99

                            
            
            
                    
                    
                    
                        
                        
                        $899
                        99
                        
                        
                    
                    
                    
                    
			
    
    


	
    
    
    
    
    
    Price After Rebate: $299.99*
    
    
    
    
    
    






	
    
    
    PNY Elite Performance 32GB SDHC Flash Memory Card
	
    
    
    
    
    GIGABYTE FM2+/FM2 MATX MOBO
	
    
    
    
    
	
    
    
    
    
	
    
    


	
    
    
  
    
    
    
    
	
    
    
    
    
  
    
    
    
    
	
    
    
    
    
  
    
    
    
    
	
    
    
    
    
  
    
    
    
    
	
    
    



	
    
    
                    Expires 5/23
					
                    $0.99 shipping 
					
                            
                       $44.99

                            
                        
                        
                        $17
                        99
                        
                        
							
    
    
    
    
                    Expires 5/23
					
                    FREE SHIPPING
					
                            
                       $74.99

                            
                        
                        
                        $57
                        99
                        
                        
							
    
    
    
    
                        
                        
                        $79
                        99
                        
                        
							
    
    
    
    
                    FREE SHIPPING
					
                            
                       $2999.99

                            
                        
                        
                        $2499
                        99
                        
                        
							
    
    


	
    
    
    
    
    
    
    
    
    
    
    
    
    
    
    
    






	
    
    
	
    
    
    
    
    MSI Z97 ATX Motherboard
	
    
    
    
    
    ANTEC HCG 850W Modular Power Supplies 
	
    
    
    
    
	
    
    


	
    
    
  
    
    
    
    
	
    
    
    
    
  
    
    
    
    
	
    
    
    
    
  
    
    
    
    
	
    
    
    
    
  
    
    
    
    
	
    
    



	
    
    
                            
                       $1649.99

                            
                        
                        
                        $1499
                        99
                        
                        
							
    
    
    
    
                            
                       $99

                            
                        
                        
                        $89
                        99
                        
                        
							
    
    
    
    
                    FREE SHIPPING
					
                            
                       $169.99

                            
                        
                        
                        $89
                        99
                        
                        
							
    
    
    
    
                    Click from this email to get exclusive price
					
                            
                       $96.99

                            
                        
                        
                        $94
                        99
                        
                        
							
    
    


	
    
    
    
    
    
    Price After Rebate: $79.99*
    
    
    
    Price After Rebate: $79.99*
    
    
    
    
    
    










	
    
    
    
    
    
    
    
    


	
    
    

					
					LG 8X Portable DVD Writer w/ McAfee AV
					
          
	
    
    
    
    

					
					PNY 64GB Turbo Flash Drive W/McAFee Multi-Access
					
          
	
    
    



	
    
    

      
				
					
            
            
            
					
						
				
					
          
          
          
          
          
          MMD15E Bundle
          
          Item# L49-8028M
 
					
          
            
 							$99.99Save $100
              
              
              $59
              99
              
              
              Price After Rebate: FREE*
           
            
            
            
            
          
				
			
 


    
    
    
    

      
				
					
            
            
            
					
						
				
					
          
          
          
          
          
          MMD15E Bundle
          
          Item# KNY-101814517K
 
					
          
            
 							$119.99Save $120
              
              
              $59
              99
              
              
              Price After Rebate: FREE*
           
            
            
            
            
          
				
			
 


    
    


	
    
    
    
    
    
    
    
    







  
    
      
    
  
  
      
      
      
      
      Don’t forget Microsoft Windows 7 Home Premium OS + McAfee 2015 Multi-Access Anti-Virus
      
      
        
        
        
     After Rebate: $119.99
       
        
       $59.99*
        
        
        
        
        
      
      
      







	
    
    
    Night Owl 1080p 4 Ch 4 Cam NVR Kit
	
    
    
    
    
    LifeSmart 10,000 BTU Portable AC 
	
    
    
    
    
    Defender D1 Wireless 8CH 6Cam 520TVL 1TB HDD Kit
	
    
    
    
    
	
    
    


	
    
    
  
    
    
    
    
	
    
    
    
    
  
    
    
    
    
	
    
    
    
    
  
    
    
    
    
	
    
    
    
    
  
    
    
    
    
	
    
    



	
    
    
                    Expires 5/23
					
                    FREE SHIPPING
					
                            
                       $699.99

                            
                        
                        
                        $449
                        99
                        
                        
							
    
    
    
    
                            
                       $499.95

                            
                        
                        
                        $239
                        99
                        
                        
							
    
    
    
    
                    FREE SHIPPING
					
                            
                       $1379.99

                            
                        
                        
                        $699
                        99
                        
                        
							
    
    
    
    
                    FREE SHIPPING
					
                            
                       $299.99

                            
                        
                        
                        $169
                        99
                        
                        
							
    
    


	
    
    
    
    
    
    
    
    
    
    
    
    
    
    Price After Rebate: $149.99*
    
    













                 
                
                
                 
				            
				        
				      
			      

                   

 
                
                
           
 
                        
                      

                                
                                
                                
                                  
                                
                          
                          
                                
                                
  
    
    
    
    
  



	



	  
	 
     	
                      
                      
                      
                  
                      
                  
                  
                  
	 

                      
                      
                      
               
                
                
                  
                  
                      
  
    
  
  
    
    
  
  
    
    
  

                
             
                  
                
                
         
         
     
                
                
                  
                
                
