EVERY SEASON STARTS AT DICK'S SPORTING GOODS FREE SHIPPING NO MINIMUM PURCHASE*   TEAM SPORTS EXERCISE FOOTWEAR APPAREL GOLF OUTDOORS FAN SHOP CLEARANCE  TAKE 25% OFF YOUR ONLINE PURCHASE** | SHOP NOW > | Online only. Excludes PING. Additional exclusions may apply. See website for details. Offer valid through 12/1/14 11:59 PM PT. ONLINE EXCLUSIVE | $25 DICK'S CASH WITH A PURCHASE OF $149 OR MORE ON THE NORTH FACE | ONLINE ONLY. SEE WEBSITE FOR DETAILS | SHOP THE NORTH FACE > SHOP OUR WEEKLY CIRCULAR >   FACEBOOK  TWITTER  YOUTUBE  INSTAGRAM  PINTEREST  

FROM: "DICK'S Sporting Goods" 
SUBJECT: Take 25% Off Your Online Purchase To Kick Off Cyber Week!




        
        
        DICK'S Sporting Goods

		




                








  
    
      
        
          



Earn $25 DICK'S Cash with a Purchase of $149 or more on The North Face
 
 





              Never miss an email from 
        
      


  
   
	  
	  
	
  
  
   
  
  
   
	  
	   
	   
	  
	
  







  
  




  
  

        















              
                



  
   
  
  
   
	  
	   
	   
	   
	   
	   
	   
	  
	
  
  
   
  



                  
                    
                    


