EVERY SEASON STARTS AT DICK'S SPORTING GOODS FREE SHIPPING NO MINIMUM PURCHASE*   TEAM SPORTS EXERCISE FOOTWEAR APPAREL GOLF OUTDOORS FAN SHOP CLEARANCE  LUNCH SALE! TODAY 11:00 AM - 4:00 PM ET | 20% OFF A SINGLE ITEM** | SHOP NOW > | Online only. Excludes PING. Additional exclusions may apply. Offer valid 11/13/14 11 AM ET - 4 PM ET only. AND LATE NIGHT SALE! TONIGHT 9:00 PM - 9:00 AM ET | 20% OFF A SINGLE ITEM** | SHOP NOW > | Online only. Excludes PING. Additional exclusions may apply. Offer valid 11/13/14 9 PM ET - 11/14/14 9 AM ET only.   FACEBOOK  TWITTER  YOUTUBE  INSTAGRAM  PINTEREST  

FROM: "DICK'S Sporting Goods" 
SUBJECT: Shop Early and Shop Late! Take 20% Off a Single Item Online!




        
        
        DICK'S Sporting Goods

		




                








  
    
      
        
          




Free Shipping No Minimum Purchase!*






              Never miss an email from 
        
      


  
   
	  
	  
	
  
  
   
  
  
   
	  
	   
	   
	  
	
  



  




  
  












              
                



  
   
  
  
   
	  
	   
	   
	   
	   
	   
	   
	  
	
  
  
   
  



                  
                    
                    



