TigerDirect.com The Hot List   Click for amazing price Click for amazing price Click for amazing price Click for amazing price Click for amazing price Click for amazing price Click for amazing price Click for amazing price  Deal of the Day! twitter facebook 

FROM: "TigerDirect.com" 
SUBJECT: SAVE NOW on Today's Top Hard Drives

 
  
 
 
  
  
    
  
  
   
    
     
     
      
       
        
        
       
       
        
        
         
          
           
           Only For Tiger Insiders
          
         
        
        
       
       
        
        
         
          
           Computers
           TV  Video 
           Computer Parts
           Find Store
           
           Daily Deal
           
          
         
        
        
       
      
     
     
    
    
     
     
     
      
       
        
        
        


HARD DRIVES


No matter the size, capacity, portability or brand, we have the deal for you. Get the hard drive you need at the price you want.








       
      
     
     
     
    
    
     
     
      
       
        
        
         
          
       
          
          
           
           
            
             
              
              
               
              
              
              
              
              
              
              
               
             
            
           
           
          
          
           
          
         
        
        
       
       
        
        
        
          
        
         
          
           
          
         
        
        
        
        
        
       
       
        
        
        Not responsible for typographical,                  technical, or descriptive errors of products herein. Prices are subject to change. Items may be available                  online or by phone only--prices and availability in TigerDirect stores may be limited.
        Call us at (800) 800-8300.                 
        REFERENCE PRIORITY CODE: WEMAR004
        
        
       
       
        
        
                                                                  
        
        
       
       
        
        
        PERMISSION SETTINGS:                 Our records indicate we have your permission to send email to the following address:                 rikin2344@gmail.com
        Subscription Center:                 If you wish to UNSUBSCRIBE                                   click here                  or go to:                                    http://www.tigerdirect.com/applications/email/emailmanager.asp
        
        
       
      
     
     
    
   
  
  
       
  
  




