Priority Inbox TigerDirect.com Final stock on Limited Inventory  Final stock on Limited Inventory Deal of the Day! Text Message RSS twitter facebook

FROM: "TigerDirect.com" 
SUBJECT: Marked Down to Make Room: 3TB HD $79, 50" LED TV $329
                

TigerDirect.com | WEM4497 | Final stock on Limited Inventory











  





	
    
      
      Only For Tiger Insiders
        
    



          
            Computers
            TV  Video 
            Computer Parts
           
            Find Store			
            Daily Deal
			
                        Spring Clearance: Start Saving!    
                         
                   
            
          
        


      
      
        
          
		
		
		  
      
      
      
      
      

  
    
        
    

  

      
        
        
        
            
              
                
              
            
        
        
        
      
    
 

    
        
    



  



  
  
  3TB InternalHard Drive								
  $79									 

  
  
  HP 128GB USB 3.0 Flash Drive								
  $29									 Ends 4/20

  
  
  $329*									 

  
  
  APC450VA UPS								
  $39									 


  


  


  
  
        
        
        
            
  
    
      
  
    
  
  
    

            
              
            
              
              
            
              
              
              
              
              
              
              
            
            
              
              


  
  
    
  
  

      
  

         
        
      

  
    
  
  
    
  
  
    
  
  
    
  
  
    
  
  
 
  
                    
  
    
  

        
       
 
                 
                

                
                
