Priority Inbox TigerDirect.com Intel: Speed Optimizated YYBM-SSDSC2BW240A3 I69-7118 IE2-102927144 GNT-102336626 GNT-102501227 GNT-102501225 B69-10361 M69-10153 B69-10427 B69-10417 <b>Don’t forget</b> Microsoft Windows 7 Home Premium OS + McAfee 2015 Multi-Access Anti-Virus GNT-102843133 GNT-102920959 HPR-102821987 HPR-102598683   Computers PC Parts TV Cell Phones Deal of the Day! Microsoft Surface SMS RSS twitter facebook

FROM: "TigerDirect.com" 
SUBJECT: Premium Performance: Intel’s New 750 Series 400GB SSD $389 & Core i7 CPU $329

TigerDirect.com | WEBBP2525 | Intel: Speed Optimizated






 
  




  
  
    
      
              
                 
                  





	
    
      
      Only For Tiger Insiders
        
    



          
            Computers
            TV  Video 
            Computer Parts
           
            Find Store			
            Daily Deal
			
                        Graduation Gift Guide  
                         
                      
            
			
            
          
        


                
                 
                  
                  
					  
					    
					        
					          
                              
                              





            
            
            












  

	
    
    
	
    
    
    
    
	
    
    
    
    
	
    
    


	
    
    
  
    
    
    

	
    
    
    
    
  
    
    
    

	
    
    
    
    
  
    
    
    

	
    
    



	
    
    
                            
                       $229.99

                            
            
            
                    
                    
                    
                        
                        
                        $74
                        99
                        
                        
                    
                    
                    
                    
			
    
    
    
    
                    FREE SHIPPING
					
                            
                       $456.81

                            
            
            
                    
                    
                    
                        
                        
                        $389
                        99
                        
                        
                    
                    
                    
                    
			
    
    
    
    
                            
                       $499.99

                            
            
            
                    
                    
                    
                        
                        
                        $249
                        99
                        
                        
                    
                    
                    
                    
			
    
    


	
    
    
    
    
    
    
    
    
    
    
    
    













	
    
    
    Intel G3258UnlockedBarebones w/128GB SSD
	
    
    
    
    
    Intel i7-4790 QuadCore CPU &MotherboardBundle w/ 8GBMemory
	
    
    
    
    
    Intel i7-4790KUnlocked QuadCore Barebones w/250GB SSD
	
    
    
    
    
    Intel i5-4690Quad CoreBarebonesw/ 1TB HDD
	
    
    


	
    
    
  
    
    
    
    
	
    
    
    
    
  
    
    
    
    
	
    
    
    
    
  
    
    
    
    
	
    
    
    
    
  
    
    
    
    
	
    
    



	
    
    
                            
                       $393.99

                            
                        
                        
                        $299
                        99
                        
                        
							
    
    
    
    
                            
                       $542.99

                            
                        
                        
                        $419
                        99
                        
                        
							
    
    
    
    
                            
                       $1228.99

                            
                        
                        
                        $969
                        99
                        
                        
							
    
    
    
    
                            
                       $647.99

                            
                        
                        
                        $449
                        99
                        
                        
							
    
    


	
    
    Price After Rebate: $279.99*
    
    
    
    Price After Rebate: $379.99*
    
    
    
    Price After Rebate: $949.99*
    
    
    
    Price After Rebate: $399.99*
    
    








  
    
      
    
  
  
      
      
      
      
      Don’t forget Microsoft Windows 7 Home Premium OS + McAfee 2015 Multi-Access Anti-Virus
      
      
        
        
        
     After Rebate: $119.99
       
        
       $59.99*
        
        
        
        
        
      
      
      
      
      



	
    
    
	
    
    
    
    
    Intel Next Unit of Computing Kit NUC5I7RYH
	
    
    
    
    
	
    
    
    
    
	
    
    


	
    
    
  
    
    
    
    
	
    
    
    
    
  
    
    
    
    
	
    
    
    
    
  
    
    
    
    
	
    
    
    
    
  
    
    
    
    
	
    
    



	
    
    
                    FREE SHIPPING
					
                            
                       $329.99

                            
                        
                        
                        $279
                        99
                        
                        
							
    
    
    
    
                    FREE SHIPPING
					
                            
                       $499.99

                            
                        
                        
                        $469
                        99
                        
                        
							
    
    
    
    
                    FREE SHIPPING
					
                            
                       $604

                            
                        
                        
                        $349
                        99
                        
                        
							
    
    
    
    
                            
                       $699.99

                            
                        
                        
                        $599
                        99
                        
                        
							
    
    


	
    
    
    
    
    
    
    
    
    
    
    
    
    
    
    
    



















                 
                
                
                 
				            
				        
				      
			      

                   

 
                
                
                
                                 
         
         
         
         
         
         
         
         
         
         
         
        
        
            
            
              
               
                
                
                
              
          
        

 
                        
                      

                                
                                
                                
                                  
                                
                          
                          
                                
                                
  
    
    
    
    
  



	



	  
	 
     	
                      
                      
                      
                  
                      
                  
                  
                  

    
                  
                  
                  
	
  

                      
                      
                      
               
                
                
                  
                  
                      
                
             
                  
                
                
         
         
     
                
                
                  
                
                
