Priority Inbox TigerDirect.com Enjoy a higher gaming experience!  Enjoy a higher gaming experience! Deal of the Day! McAfee Magic of the Tablet Sweepstakes Text Message RSS twitter facebook

FROM: "TigerDirect.com" 
SUBJECT: $39 Android 7” Tablet | $69 PNY 128GB MicroSD | Reach the Next LVL
                

TigerDirect.com | WEM4496 | Enjoy a higher gaming experience!











  





	
    
      
      Only For Tiger Insiders
        
    



          
            Computers
            TV  Video 
            Computer Parts
           
            Find Store			
            Daily Deal
			
            
          
        


      
      
        
          
		
		
		  
      
      
      
      
      

  
    
        
    

  

      
        
        
        
            
              
                
              
            
        
        
        
      
    
 

    
        
    



  



  
  
  $39									 

  
  
  Seagate 1TB Slim Portable HD								
  $59									 

  
  
  PNY 128GB MicroSD								
  
  $69*									 
  

  
  
  
  $899*									 
  

  


  


  
  
        
        
        
            
  
    
      
  
    
  
  
    

            
              
            
              
              
            
              
              
              
              
              
              
              
            
            
              
              


  
  
    
  
  

      
  

         
        
      

  
    
  
  
    
  
  
    
  





    
  
  
    
  
  
    
  
  
 
  
                    
  
    
  

        
       
 
                 
                

                
                
