Priority Inbox TigerDirect.com Step out in style with these deals LCU-102411214 HPR-102912704 Shop Now VSU-102923230 Shop Now DEI-102410415 HPR-102598683 OCE-102524135 OUR-102592921 VDA-102106561 KNY-102814126S WED-102408290 GRU-102839225 LGE-102607787 UAM-102896224 FEI-102543613 KCE-102777662 C13-CX600M Shop Now ULR-102408484 Shop Now L61-6116 M VDA-102326335 KIO-102362472 WZP-102588308 C18-42029 KIW-102494161 L49-8028M ULR-102558662  Computers PC Parts TV Cell Phones Deal of the Day! McAfee Tiger March Mania Tournament Tiger March Mania Tournament RSS twitter facebook

FROM: "TigerDirect.com" 
SUBJECT: Weekend Faves: 1TB HD $39 | LG 49" 4K TV $799 | 2-in-1 i7 Laptop $679

TigerDirect.com | WEBBP2463 | Step out in style with these deals






 
  




  
  
    
      
              
                 
                  





	
    
      
      Only For Tiger Insiders
        
    



          
            Computers
            TV  Video 
            Computer Parts
           
            Find Store			
            Daily Deal
			
                        Mother's Day Sale  
                         
                      
            
			
            
          
        


                
                 
                  
                  
					  
					    
					        
					          
                              
                              






















	
    
    
    
    
    
    
    
    


	
    
    

					
					
          
	
    
    
    
    

					
					
          
	
    
    



	
    
    

      
				
					
            
            
            
					
						
				
					
          
          
          
          
          
          
          Item# HPR-102912704
 
					
          
            
 							
              
              
              $729
              99
              
              
              
           
            
            
            
            
          
				
			
 


    
    
    
    

      
				
					
            
            
            
					
						
				
					
          
          
          
          
          FREE SHIPPING
          
          Item# VSU-102923230
 
					
          
            
 							
              
              
              $699
              99
              
              
              
           
            
            
            
            
          
				
			
 


    
    


	
    
    
    
    
    
    
    
    














	
    
    
	
    
    
    
    
	
    
    
    
    
	
    
    


	
    
    
  
    
    
    

	
    
    
    
    
  
    
    
    

	
    
    
    
    
  
    
    
    

	
    
    



	
    
    
                            
                       $669.99

                            
            
            
                    
                    
                    
                        
                        
                        $599
                        99
                        
                        
                    
                    
                    
                    
			
    
    
    
    
                    FREE SHIPPING
					
                            
                       $109.99

                            
            
            
                    
                    
                    
                        
                        
                        $89
                        99
                        
                        
                    
                    
                    
                    
			
    
    
    
    
                            
                       $89.99

                            
            
            
                    
                    
                    
                        
                        
                        $59
                        99
                        
                        
                    
                    
                    
                    
			
    
    


	
    
    
    
    
    
    
    
    
    
    
    
    






	
    
    
    ADATA Premier 64GB MicroSDXC Flash Card
	
    
    
    
    
    PNY Optima Series 120GB Solid State Drive
	
    
    
    
    
	
    
    
    
    
	
    
    


	
    
    
  
    
    
    
    
	
    
    
    
    
  
    
    
    
    
	
    
    
    
    
  
    
    
    
    
	
    
    
    
    
  
    
    
    
    
	
    
    



	
    
    
                            
                       $39.99

                            
                        
                        
                        $24
                        99
                        
                        
							
    
    
    
    
                    FREE SHIPPING
					
                            
                       $89.99

                            
                        
                        
                        $49
                        99
                        
                        
							
    
    
    
    
                    FREE SHIPPING
					
                        
                        
                        $59
                        99
                        
                        
							
    
    
    
    
                    Expires 4/26
					
                    FREE SHIPPING
					
                            
                       $249.99

                            
                        
                        
                        $199
                        99
                        
                        
							
    
    


	
    
    
    
    
    
    
    
    
    
    Price After Rebate: $39.99*
    
    
    
    Price After Rebate: $179.99*
    
    















	
    
    
	
    
    
    
    
	
    
    
    
    
	
    
    


	
    
    
  
    
    
    

	
    
    
    
    
  
    
    
    

	
    
    
    
    
  
    
    
    

	
    
    



	
    
    
                    $20 Shipping
					
                    FREE SHIPPING
					
                            
                       $1477.99

                            
            
            
                    
                    
                    
                        
                        
                        $1097
                        
                        
                    
                    
                    
                    
			
    
    
    
    
                            
                       $599.99

                            
            
            
                    
                    
                    
                        
                        
                        $449
                        99
                        
                        
                    
                    
                    
                    
			
    
    
    
    
                    FREE SHIPPING
					
                            
                       $299.99

                            
            
            
                    
                    
                    
                        
                        
                        $179
                        99
                        
                        
                    
                    
                    
                    
			
    
    


	
    
       
             
              
      			$380 OFF
      			 SKL156148 
              
            
      		Ends 
                          4/27 11:59 PM ET
                          
                         
                       
        
    
    
    
    Price After Rebate: $349.99*
    
    
    
    Price After Rebate: $159.99*
    
    











	
    
    
    
    
    
    
    
    


	
    
    

					
					
          
	
    
    
    
    

					
					Ultra 1000 Watt X4 Special Edition Mod ATX PSU
					
          
	
    
    



	
    
    

      
				
					
            
            
            
					
						
				
					
          
          
          
          
          FREE SHIPPING
          600 Watts Power, 80+ Bronze, Modular Cabling, Active PFC,ATX Connector, Single +12V Rail, Low Noise, Trouble-free Installation
          
          Item# C13-CX600M
 
					
          
            
 							$79.99Save $40
              
              
              $59
              99
              
              
              After Rebate: $39.99*
           
            
            
            
            
          
				
			
 


    
    
    
    

      
				
					
            
            
            
					
						
				
					
          
          
          
          
          FREE SHIPPING
          1000 Watt X4 Special Edition Modular ATX Power Supply Unit
          
          Item# ULR-102408484
 
                    
                      
                        $10 OFF
                         YFV156127 
                      
                    
                    
                    Ends 4/28 11:59 PM ET 
                    
            
					
          
            
 							$199.99Save $120
              
              
              $119
              
              
              After Rebate  Coupon: $79.99*
           
            
            
            
            
          
				
			
 


    
    


	
    
    
    
    
    
    
    
    






	
    
    
    Lexar 64GB Flash Drive with McAfee Multi-Access AV
	
    
    
    
    
    ADATA DashDrive UV150 64GB Flash Drive
	
    
    
    
    
    Kingston HyperX Fury Blue 16GB Memory Module Kit
	
    
    
    
    
	
    
    


	
    
    
  
    
    
    
    
	
    
    
    
    
  
    
    
    
    
	
    
    
    
    
  
    
    
    
    
	
    
    
    
    
  
    
    
    
    
	
    
    



	
    
    
                    FREE SHIPPING
					
                            
                       $116.99

                            
                        
                        
                        $59
                        99
                        
                        
							
    
    
    
    
                            
                       $39.99

                            
                        
                        
                        $23
                        99
                        
                        
							
    
    
    
    
                    FREE SHIPPING
					
                            
                       $116.99

                            
                        
                        
                        $109
                        99
                        
                        
							
    
    
    
    
                    FREE SHIPPING
					
                            
                       $199.99

                            
                        
                        
                        $149
                        99
                        
                        
							
    
    


	
    
    Price After Rebate: FREE*
    
    
    
    
    
    
    
    
    
    
    
    
    
    





  
  







	
    
    
    Color Research Protective Paper Sleeves 50 pack
	
    
    
    
    
	
    
    
    
    
    LG 8X Portable External Drive USB 2.0 w McAfee AV
	
    
    
    
    
    ULTRA Wireless N USB Adapter 300MBPS
	
    
    


	
    
    
  
    
    
    
    
	
    
    
    
    
  
    
    
    
    
	
    
    
    
    
  
    
    
    
    
	
    
    
    
    
  
    
    
    
    
	
    
    



	
    
    
                            
                       $7.99

                            
                        
                        
                        $4
                        99
                        
                        
							
    
    
    
    
                    FREE SHIPPING
					
                            
                       $39.99

                            
                        
                        
                        $19
                        99
                        
                        
							
    
    
    
    
                            
                       $99.99

                            
                        
                        
                        $59
                        99
                        
                        
							
    
    
    
    
                    Expires 4/25
					
                            
                       $39.99

                            
                        
                        
                        $19
                        99
                        
                        
							
    
    


	
    
    Price After Rebate: FREE*
    
    
    
    Price After Rebate: FREE*
    
    
    
    Price After Rebate: FREE*
    
    
    
    Price After Rebate: FREE*
    
    












     
                  
                

 
 
                
                
                
                
                  
                      
                        
                          
                            
                            
                          
                        
                      
                      
                        
                      
                      
                        
                        
                        
                        
                        
                        
                        
                      
                  
                
                  
 
                        
                      

                                
                                
                                
                                  
                                
                          
                          
                                
                                
  
    
    
    
    
  



	



	  
	 
     	
                      
                      
                      
                  
             
                  
                  
                  
                     
                 
     
  

                      
                      
                      
               
                
                
                  
                  
                      
  
    
  
  
    
    
  
  
    
    
  

                
             
                  
                
                
         
         
     
                
                
                  
                
                
