EVERY SEASON STARTS AT DICK'S SPORTING GOODS FREE SHIPPING NO MINIMUM PURCHASE*   TEAM SPORTS EXERCISE FOOTWEAR APPAREL GOLF OUTDOORS FAN SHOP CLEARANCE  12 DAYS OF DEALS | NOW THROUGH THURSDAY 12/18 | 20 NEW DEALS EVERY DAY TODAY'S FEATURED DEAL | 50% OFF MUST-HAVE HOLIDAY GIFTS | SHOP ALL DEALS GET $25 DICK'S CASH WITH A PURCHASE OF $149 OR MORE ON THE NORTH FACE&amp;dagger; | ONLINE ONLY | SHOP THE NORTH FACE UP TO 60% OFF SELECT REEBOK &amp; ADIDAS ATHLETIC APPAREL | SHOP NOW EARN $10 IN DICK'S CASH WITH THE PURCHASE OF A FITBIT FLEX | IN-STORE &amp; ONLINE | SHOP NOW GUARANTEED FOR HOLIDAY DELIVERY BY DEC.24 OR IT'S FREE | FRI 19 ON OR BEFORE THE 19TH SELECT STANDARD SHIPPING ORDER BY 11:59 PM PST | SAT 20 ON SATURDAY THE 20TH MUST SELECT 2 DAY SHIPPING ORDER BY 11:59 PM PST | SUN 21 ON SUNDAY THE 21ST MUST SELECT 1 DAY SHIPPING ORDER BY 
11:59 PM PST   FACEBOOK  TWITTER  YOUTUBE  INSTAGRAM  PINTEREST  

FROM: "DICK'S Sporting Goods" 
SUBJECT: 50% Off Holiday Gifts + $25 Bonus Cash on The North Face!
MESSAGE: 




        
        
        DICK'S Sporting Goods

		




                








  
    
      
        
          



Earn $10 in DICK'S Cash with the Purchase of a Fitbit Flex! 





              Never miss an email from 
        
      


  
   
	  
	  
	
  
  
   
  
  
   
	  
	   
	   
	  
	
  








  
  
  
  
  
  
  
  
  
  

        


















  
  

  








              
                



  
   
  
  
   
	  
	   
	   
	   
	   
	   
	   
	  
	
  
  
   
  



                  
                    
                    


