Priority Inbox TigerDirect.com Hot Summer Hot Deals  Hot Summer Hot Deals   Deal of the Day! Microsoft Surface Text Message RSS twitter facebook

FROM: "TigerDirect.com" 
SUBJECT: Mid-Year Inventory Reduction
                

TigerDirect.com | WEM4567 | Hot Summer Hot Deals

















	
    
      
      Only For Tiger Insiders
        
    



          
            Computers
            TV  Video 
            Computer Parts
           
            Find Store			
            Daily Deal
			
                        Summer Clearance  
                         
                      
            
			
            
          
        


      
      
        
          
		
		
		  
      
      
      
      
      

  
    
        
    

  

      
        
        
        
            
              
                
              
            
        
        
        
      
    
 

    
        
    



  



  
  
  HP i5EliteBook Laptop
  $579 

  
  
  HP OfficeJetPro Printer
  $59 

  
  
  3TBExternal HD
  $79* 

  
  
  $69 

  


  
  
        
        
        
            
  
    
      
  
    
  
    
    




    
        
            
            
              
               
                
                
                
              
          
        
    


  
    
  





    
    
    
    
    
  
  
    
  
  

      
  

         
        
      

  
    
  
  
    
  
  
    
  
  
      
                  
                  
                  
  
    
  
  
    
  
  
 
  
                    
  
    
  

        
       
 
                 
                

                
                
