Priority Inbox TigerDirect.com Get Coupon Save up to 50% #1 Lock Top Reasons to Shop with TigerDirect.com    Top Reasons to Shop with TigerDirect.com     twitter facebook 

FROM: "TigerDirect.com" 
SUBJECT: This Sweet Deal?s Just For You!
 
  TigerDirect.com | WEBWIN001 | Satisfy Your Sweet Tooth with A $10 Off $100 Coupon
 
 
  
  
     
  
  
  
   
    
     
      
       
        
        
       
       
        
         
          
           
          
          
           Satisfy Your Sweet Tooth with a
           
           $10 OFF $100 COUPON
           
          
          
           
            
             
              
              
               
                
                 
                  
                   
                    
                    Dear  Rikin,We're always cooking up great deals, and this one is just for you!
                    
                   
                  
                 
                 
                  
                   
                    Get $10 off your next order of $100 or more
                    
                                                                                                                                                      Hurry, offer ends soon!
                    
                    
                   
                  
                 
                 
                
               
              
             
            
           
          
          
           
            
             
              
              
               
                
                 
                 
                
               
              
              
             
             
              
              
               
                
                 
                
                
                 
                 
                 
                  
                   
                    Thousands of PC parts and electronics in stock and ready to ship the same day
                   
                   
                    Free shipping on thousands of products
                   
                   
                    Premium customer care by phone at (800)-800-8300, online, and in-store
                   
                  
                 
                 
                 
                
                
                 
                
               
              
              
              
              
               
                
                 
                
                
                 
                 
                 
                  
                   
                    We respect your privacy. You may read our strict privacy policy here
                   
                   
                    You can always reduce the amount of emails you receive or unsubscribe at any time
                   
                   
                    Secure Website Guarantee
                   
                   
                    30 Day Limited Guarantee
                   
                  
                 
                 
                 
                
                
                 
                
               
              
              
             
            
           
          
          
           
          
          
           
           
            
             
              
              
              Call us at (800) 800-8300. REFERENCE PRIORITY CODE: WEBWIN001
              
              
             
             
              
                                                                                                                  
              
              
             
             
              
              
              PERMISSION SETTINGS:                 Our records indicate we have your permission to send email to the following address:                 rikin2344@gmail.com
              Subscription Center:                 If you wish to UNSUBSCRIBE click here or go to: http://www.tigerdirect.com/applications/email/emailmanager.asp
              
              
             
            
           
           
          
         
        
        
               
       
      
     
     
    
   
  
  
                      
  
  
 




