Abercrombie,0.0,1.0,1.0,1.0
Fitch,0.0,1.0,1.0,1.0
Details,0.0,0.950892857142857,0.950892857142857,1.0
STORE

FROM,0.0,0.910714285714286,0.910714285714286,1.0
FIND,0.0201612903225806,0.910714285714286,0.890552995391705,0.978341584158416
ORDERS,0.0201612903225806,0.857142857142857,0.836981566820276,0.977019041365726
ALL,0.0685483870967742,0.888392857142857,0.819844470046083,0.92836719337848
WOMENS,0.112903225806452,0.919642857142857,0.806739631336405,0.890655509065551
MENS,0.112903225806452,0.919642857142857,0.806739631336405,0.890655509065551
;,0.129032258064516,0.933035714285714,0.804003456221198,0.878508474576271
amp,0.112903225806452,0.915178571428571,0.80227534562212,0.890180697576691
LOOKBOOK,0.0,0.794642857142857,0.794642857142857,1.0
See,0.173387096774194,0.950892857142857,0.777505760368663,0.845779428717817
OVER,0.032258064516129,0.75,0.717741935483871,0.958762886597938
email,0.693548387096774,0.0,0.693548387096774,0.0
		,0.689516129032258,0.0,0.689516129032258,0.0
FOLLOW,0.0,0.65625,0.65625,1.0
JEANS,0.0,0.607142857142857,0.607142857142857,1.0
$75,0.0,0.584821428571429,0.584821428571429,1.0
Exclusions,0.0,0.580357142857143,0.580357142857143,1.0


FROM,0.57258064516129,0.0,0.57258064516129,0.0
ON,0.366935483870968,0.90625,0.539314516129032,0.711797307996833
from,0.608870967741935,0.0758928571428571,0.532978110599078,0.110830704521556
Sporting,0.528225806451613,0.0,0.528225806451613,0.0
Goods,0.528225806451613,0.0,0.528225806451613,0.0
DICKS,0.528225806451613,0.0,0.528225806451613,0.0
FOOTWEAR,0.524193548387097,0.0,0.524193548387097,0.0
GOODS,0.524193548387097,0.0,0.524193548387097,0.0
SPORTING,0.524193548387097,0.0,0.524193548387097,0.0
TEAM,0.524193548387097,0.0,0.524193548387097,0.0
GOLF,0.524193548387097,0.0,0.524193548387097,0.0
SPORTS,0.524193548387097,0.0,0.524193548387097,0.0
STARTS,0.524193548387097,0.0,0.524193548387097,0.0
OUTDOORS,0.524193548387097,0.0,0.524193548387097,0.0
YOUTUBE,0.524193548387097,0.0,0.524193548387097,0.0
FAN,0.524193548387097,0.0,0.524193548387097,0.0
APPAREL,0.524193548387097,0.0,0.524193548387097,0.0
EXERCISE,0.524193548387097,0.0,0.524193548387097,0.0
Never,0.528225806451613,0.00446428571428571,0.523761520737327,0.00838064341713977
miss,0.528225806451613,0.00892857142857143,0.519297235023041,0.0166219839142091
SEASON,0.524193548387097,0.0223214285714286,0.501872119815668,0.0408432147562582
an,0.548387096774194,0.0491071428571429,0.499279953917051,0.0821884791516028
Deal,0.483870967741935,0.0,0.483870967741935,0.0
YORK,0.0,0.473214285714286,0.473214285714286,1.0
TigerDirectcom,0.471774193548387,0.0,0.471774193548387,0.0
twitter,0.467741935483871,0.0,0.467741935483871,0.0
Day,0.564516129032258,0.0982142857142857,0.466301843317972,0.14819643633203
AT,0.524193548387097,0.0580357142857143,0.466157834101382,0.0996784565916399
of,0.625,0.165178571428571,0.459821428571429,0.209039548022599
Daily,0.459677419354839,0.0,0.459677419354839,0.0
Parts,0.459677419354839,0.0,0.459677419354839,0.0
Video,0.459677419354839,0.0,0.459677419354839,0.0
Computer,0.459677419354839,0.0,0.459677419354839,0.0
Computers,0.459677419354839,0.0,0.459677419354839,0.0
TV,0.459677419354839,0.0,0.459677419354839,0.0
Select,0.120967741935484,0.575892857142857,0.454925115207373,0.826410415375078
NEW,0.0604838709677419,0.5,0.439516129032258,0.892086330935252
EVERY,0.524193548387097,0.0848214285714286,0.439372119815668,0.139276424686687
Priority,0.435483870967742,0.0,0.435483870967742,0.0
Tiger,0.435483870967742,0.0,0.435483870967742,0.0
Inbox,0.435483870967742,0.0,0.435483870967742,0.0
Insiders,0.435483870967742,0.0,0.435483870967742,0.0
facebook

FROM,0.419354838709677,0.0,0.419354838709677,0.0
RSS,0.415322580645161,0.0,0.415322580645161,0.0
USE,0.0,0.415178571428571,0.415178571428571,1.0
Only,0.592741935483871,0.178571428571429,0.414170506912442,0.231516056758775
stores,0.0846774193548387,0.491071428571429,0.40639400921659,0.852926463231616
For,0.455645161290323,0.0669642857142857,0.388680875576037,0.12813447230642
off,0.0564516129032258,0.4375,0.381048387096774,0.885714285714286
			,0.375,0.0,0.375,0.0
SHOP,0.524193548387097,0.897321428571429,0.373127880184332,0.63124303515348
Store			,0.370967741935484,0.0,0.370967741935484,0.0
Find,0.455645161290323,0.0848214285714286,0.370823732718894,0.156941113775646
PM,0.391129032258065,0.03125,0.359879032258065,0.0739856801909308
MORE,0.362903225806452,0.00446428571428571,0.358438940092166,0.0121520972167777
OR,0.350806451612903,0.0133928571428571,0.337413594470046,0.036773428232503
OF,0.395161290322581,0.0669642857142857,0.328197004608295,0.144904954814584
THE,0.19758064516129,0.522321428571429,0.324740783410138,0.725545109021804
for,0.516129032258065,0.191964285714286,0.324164746543779,0.271100264388855
1159,0.338709677419355,0.0178571428571429,0.320852534562212,0.0500807754442649
Facebook,0.0,0.3125,0.3125,1.0
Twitter,0.0,0.3125,0.3125,1.0
Pinterest,0.0,0.3125,0.3125,1.0
Instagram,0.0,0.3125,0.3125,1.0
In,0.0161290322580645,0.325892857142857,0.309763824884793,0.952842105263158
CLEARANCE,0.524193548387097,0.21875,0.305443548387097,0.294436906377205
IN,0.0846774193548387,0.379464285714286,0.294786866359447,0.817561278312132
CODE,0.112903225806452,0.40625,0.293346774193548,0.78252427184466
STORES,0.0524193548387097,0.34375,0.29133064516129,0.867684478371501
Message,0.286290322580645,0.0,0.286290322580645,0.0
WANELO,0.0,0.285714285714286,0.285714285714286,1.0
MINIMUM,0.278225806451613,0.0,0.278225806451613,0.0
AampF,0.0,0.276785714285714,0.276785714285714,1.0
may,0.310483870967742,0.0357142857142857,0.274769585253456,0.103161397670549
NO,0.282258064516129,0.0133928571428571,0.268865207373272,0.0452995616171456
valid,0.266129032258065,0.0,0.266129032258065,0.0
Apply,0.0,0.254464285714286,0.254464285714286,1.0
Deals,0.258064516129032,0.00446428571428571,0.253600230414747,0.0170049369171695
1892,0.0,0.25,0.25,1.0
TAKE,0.258064516129032,0.00892857142857143,0.249135944700461,0.0334412081984897
Free,0.338709677419355,0.09375,0.244959677419355,0.216783216783217
ET,0.245967741935484,0.00446428571428571,0.241503456221198,0.0178263369752731
PING,0.237903225806452,0.0,0.237903225806452,0.0
through,0.241935483870968,0.00446428571428571,0.237471198156682,0.0181180596142607
Shipping,0.338709677419355,0.102678571428571,0.236031105990783,0.232626427406199
!,0.967741935483871,0.732142857142857,0.235599078341014,0.430701457133175
reflects,0.0,0.232142857142857,0.232142857142857,1.0
Text,0.286290322580645,0.0580357142857143,0.228254608294931,0.168548724383103
on,0.375,0.147321428571429,0.227678571428571,0.282051282051282
the,0.491935483870968,0.267857142857143,0.224078341013825,0.35253980288097
$50,0.0766129032258065,0.299107142857143,0.222494239631336,0.796090456113453
SAVE,0.221774193548387,0.0,0.221774193548387,0.0
Additional,0.213709677419355,0.0,0.213709677419355,0.0
exclusions,0.213709677419355,0.0,0.213709677419355,0.0
99,0.213709677419355,0.0,0.213709677419355,0.0
					,0.209677419354839,0.0,0.209677419354839,0.0
PT,0.205645161290323,0.0,0.205645161290323,0.0
Microsoft,0.205645161290323,0.0,0.205645161290323,0.0
ONLINE,0.342741935483871,0.544642857142857,0.201900921658986,0.6137617656605
Excludes,0.225806451612903,0.0267857142857143,0.199020737327189,0.106043329532497
Offer,0.233870967741935,0.0357142857142857,0.19815668202765,0.132478632478632
SEE,0.0161290322580645,0.214285714285714,0.19815668202765,0.93
OUTERWEAR,0.0564516129032258,0.254464285714286,0.19801267281106,0.818434460398333
PC,0.193548387096774,0.0,0.193548387096774,0.0
INSTORE,0.193548387096774,0.00446428571428571,0.189084101382488,0.0225454545454545
SHIPPING,0.713709677419355,0.901785714285714,0.188076036866359,0.558210019611339
Flash,0.185483870967742,0.0,0.185483870967742,0.0
Surface,0.17741935483871,0.0,0.17741935483871,0.0
Your,0.233870967741935,0.0580357142857143,0.175835253456221,0.198815984213123
and,0.326612903225806,0.151785714285714,0.174827188940092,0.317278747742324
Rebate,0.173387096774194,0.0,0.173387096774194,0.0
After,0.173387096774194,0.0,0.173387096774194,0.0
or,0.278225806451613,0.107142857142857,0.171082949308756,0.278026905829596
OFF,0.512096774193548,0.683035714285714,0.170938940092166,0.571514640318111
Sale,0.213709677419355,0.0491071428571429,0.164602534562212,0.186849315068493
PURCHASES,0.161290322580645,0.0,0.161290322580645,0.0
website,0.161290322580645,0.0,0.161290322580645,0.0
				,0.161290322580645,0.0,0.161290322580645,0.0
DEALS,0.169354838709677,0.00892857142857143,0.160426267281106,0.0500807754442649
12,0.173387096774194,0.0133928571428571,0.159994239631336,0.0717039321511179
only,0.32258064516129,0.482142857142857,0.159562211981567,0.599141016463851
INSTAGRAM,0.524193548387097,0.683035714285714,0.158842165898618,0.565787904091614
PINTEREST,0.524193548387097,0.683035714285714,0.158842165898618,0.565787904091614
FACEBOOK,0.524193548387097,0.683035714285714,0.158842165898618,0.565787904091614
TWITTER,0.524193548387097,0.683035714285714,0.158842165898618,0.565787904091614
click,0.165322580645161,0.00892857142857143,0.15639400921659,0.0512396694214876
TREND,0.0,0.15625,0.15625,1.0
Purchase,0.169354838709677,0.0133928571428571,0.15596198156682,0.0732860520094563
Drive,0.153225806451613,0.0,0.153225806451613,0.0
							,0.153225806451613,0.0,0.153225806451613,0.0
